^C:\USERS\STACKNIT\DROPBOX\EVENTGLYPH\EVENTGLYPH\MAIN.CPP
C:\WINDOWS\GLOBALIZATION\SORTING\SORTDEFAULT.NLS
C:\PROGRAM FILES (X86)\MICROSOFT VISUAL STUDIO 14.0\VC\BIN\1031\CLUI.DLL
C:\PROGRAM FILES (X86)\MICROSOFT VISUAL STUDIO 14.0\VC\BIN\MSPDBSRV.EXE
C:\WINDOWS\SYSTEM32\TZRES.DLL
C:\USERS\STACKNIT\DROPBOX\EVENTGLYPH\EVENTGLYPH\MMSE_FILE.HPP
C:\PROGRAM FILES (X86)\MICROSOFT VISUAL STUDIO 14.0\VC\INCLUDE\STRING
C:\PROGRAM FILES (X86)\MICROSOFT VISUAL STUDIO 14.0\VC\INCLUDE\ISTREAM
C:\PROGRAM FILES (X86)\MICROSOFT VISUAL STUDIO 14.0\VC\INCLUDE\OSTREAM
C:\PROGRAM FILES (X86)\MICROSOFT VISUAL STUDIO 14.0\VC\INCLUDE\IOS
C:\PROGRAM FILES (X86)\MICROSOFT VISUAL STUDIO 14.0\VC\INCLUDE\XLOCNUM
C:\PROGRAM FILES (X86)\MICROSOFT VISUAL STUDIO 14.0\VC\INCLUDE\CLIMITS
C:\PROGRAM FILES (X86)\MICROSOFT VISUAL STUDIO 14.0\VC\INCLUDE\YVALS.H
C:\PROGRAM FILES (X86)\MICROSOFT VISUAL STUDIO 14.0\VC\INCLUDE\XKEYCHECK.H
C:\PROGRAM FILES (X86)\MICROSOFT VISUAL STUDIO 14.0\VC\INCLUDE\CRTDEFS.H
C:\PROGRAM FILES (X86)\MICROSOFT VISUAL STUDIO 14.0\VC\INCLUDE\VCRUNTIME.H
C:\PROGRAM FILES (X86)\MICROSOFT VISUAL STUDIO 14.0\VC\INCLUDE\SAL.H
C:\PROGRAM FILES (X86)\MICROSOFT VISUAL STUDIO 14.0\VC\INCLUDE\CONCURRENCYSAL.H
C:\PROGRAM FILES (X86)\MICROSOFT VISUAL STUDIO 14.0\VC\INCLUDE\VADEFS.H
C:\PROGRAM FILES (X86)\WINDOWS KITS\10\INCLUDE\10.0.10240.0\UCRT\CORECRT.H
C:\PROGRAM FILES (X86)\MICROSOFT VISUAL STUDIO 14.0\VC\INCLUDE\USE_ANSI.H
C:\PROGRAM FILES (X86)\MICROSOFT VISUAL STUDIO 14.0\VC\INCLUDE\LIMITS.H
C:\PROGRAM FILES (X86)\MICROSOFT VISUAL STUDIO 14.0\VC\INCLUDE\CMATH
C:\PROGRAM FILES (X86)\WINDOWS KITS\10\INCLUDE\10.0.10240.0\UCRT\MATH.H
C:\PROGRAM FILES (X86)\MICROSOFT VISUAL STUDIO 14.0\VC\INCLUDE\XTGMATH.H
C:\PROGRAM FILES (X86)\MICROSOFT VISUAL STUDIO 14.0\VC\INCLUDE\XTR1COMMON
C:\PROGRAM FILES (X86)\MICROSOFT VISUAL STUDIO 14.0\VC\INCLUDE\CSTDLIB
C:\PROGRAM FILES (X86)\WINDOWS KITS\10\INCLUDE\10.0.10240.0\UCRT\STDLIB.H
C:\PROGRAM FILES (X86)\WINDOWS KITS\10\INCLUDE\10.0.10240.0\UCRT\CORECRT_MALLOC.H
C:\PROGRAM FILES (X86)\WINDOWS KITS\10\INCLUDE\10.0.10240.0\UCRT\CORECRT_SEARCH.H
C:\PROGRAM FILES (X86)\WINDOWS KITS\10\INCLUDE\10.0.10240.0\UCRT\STDDEF.H
C:\PROGRAM FILES (X86)\WINDOWS KITS\10\INCLUDE\10.0.10240.0\UCRT\CORECRT_WSTDLIB.H
C:\PROGRAM FILES (X86)\MICROSOFT VISUAL STUDIO 14.0\VC\INCLUDE\CSTDIO
C:\PROGRAM FILES (X86)\WINDOWS KITS\10\INCLUDE\10.0.10240.0\UCRT\STDIO.H
C:\PROGRAM FILES (X86)\WINDOWS KITS\10\INCLUDE\10.0.10240.0\UCRT\CORECRT_WSTDIO.H
C:\PROGRAM FILES (X86)\WINDOWS KITS\10\INCLUDE\10.0.10240.0\UCRT\CORECRT_STDIO_CONFIG.H
C:\PROGRAM FILES (X86)\MICROSOFT VISUAL STUDIO 14.0\VC\INCLUDE\STREAMBUF
C:\PROGRAM FILES (X86)\MICROSOFT VISUAL STUDIO 14.0\VC\INCLUDE\XIOSBASE
C:\PROGRAM FILES (X86)\MICROSOFT VISUAL STUDIO 14.0\VC\INCLUDE\XLOCALE
C:\PROGRAM FILES (X86)\MICROSOFT VISUAL STUDIO 14.0\VC\INCLUDE\CSTRING
C:\PROGRAM FILES (X86)\WINDOWS KITS\10\INCLUDE\10.0.10240.0\UCRT\STRING.H
C:\PROGRAM FILES (X86)\WINDOWS KITS\10\INCLUDE\10.0.10240.0\UCRT\CORECRT_MEMORY.H
C:\PROGRAM FILES (X86)\WINDOWS KITS\10\INCLUDE\10.0.10240.0\UCRT\CORECRT_MEMCPY_S.H
C:\PROGRAM FILES (X86)\WINDOWS KITS\10\INCLUDE\10.0.10240.0\UCRT\ERRNO.H
C:\PROGRAM FILES (X86)\MICROSOFT VISUAL STUDIO 14.0\VC\INCLUDE\VCRUNTIME_STRING.H
C:\PROGRAM FILES (X86)\WINDOWS KITS\10\INCLUDE\10.0.10240.0\UCRT\CORECRT_WSTRING.H
C:\PROGRAM FILES (X86)\MICROSOFT VISUAL STUDIO 14.0\VC\INCLUDE\STDEXCEPT
C:\PROGRAM FILES (X86)\MICROSOFT VISUAL STUDIO 14.0\VC\INCLUDE\EXCEPTION
C:\PROGRAM FILES (X86)\MICROSOFT VISUAL STUDIO 14.0\VC\INCLUDE\TYPE_TRAITS
C:\PROGRAM FILES (X86)\MICROSOFT VISUAL STUDIO 14.0\VC\INCLUDE\XSTDDEF
C:\PROGRAM FILES (X86)\MICROSOFT VISUAL STUDIO 14.0\VC\INCLUDE\CSTDDEF
C:\PROGRAM FILES (X86)\MICROSOFT VISUAL STUDIO 14.0\VC\INCLUDE\INITIALIZER_LIST
C:\PROGRAM FILES (X86)\WINDOWS KITS\10\INCLUDE\10.0.10240.0\UCRT\MALLOC.H
C:\PROGRAM FILES (X86)\MICROSOFT VISUAL STUDIO 14.0\VC\INCLUDE\VCRUNTIME_EXCEPTION.H
C:\PROGRAM FILES (X86)\MICROSOFT VISUAL STUDIO 14.0\VC\INCLUDE\EH.H
C:\PROGRAM FILES (X86)\WINDOWS KITS\10\INCLUDE\10.0.10240.0\UCRT\CORECRT_TERMINATE.H
C:\PROGRAM FILES (X86)\MICROSOFT VISUAL STUDIO 14.0\VC\INCLUDE\XSTRING
C:\PROGRAM FILES (X86)\MICROSOFT VISUAL STUDIO 14.0\VC\INCLUDE\XMEMORY0
C:\PROGRAM FILES (X86)\MICROSOFT VISUAL STUDIO 14.0\VC\INCLUDE\CSTDINT
C:\PROGRAM FILES (X86)\MICROSOFT VISUAL STUDIO 14.0\VC\INCLUDE\STDINT.H
C:\PROGRAM FILES (X86)\MICROSOFT VISUAL STUDIO 14.0\VC\INCLUDE\LIMITS
C:\PROGRAM FILES (X86)\MICROSOFT VISUAL STUDIO 14.0\VC\INCLUDE\YMATH.H
C:\PROGRAM FILES (X86)\MICROSOFT VISUAL STUDIO 14.0\VC\INCLUDE\CFLOAT
C:\PROGRAM FILES (X86)\WINDOWS KITS\10\INCLUDE\10.0.10240.0\UCRT\FLOAT.H
C:\PROGRAM FILES (X86)\MICROSOFT VISUAL STUDIO 14.0\VC\INCLUDE\CWCHAR
C:\PROGRAM FILES (X86)\WINDOWS KITS\10\INCLUDE\10.0.10240.0\UCRT\WCHAR.H
C:\PROGRAM FILES (X86)\WINDOWS KITS\10\INCLUDE\10.0.10240.0\UCRT\CORECRT_WCONIO.H
C:\PROGRAM FILES (X86)\WINDOWS KITS\10\INCLUDE\10.0.10240.0\UCRT\CORECRT_WCTYPE.H
C:\PROGRAM FILES (X86)\WINDOWS KITS\10\INCLUDE\10.0.10240.0\UCRT\CORECRT_WDIRECT.H
C:\PROGRAM FILES (X86)\WINDOWS KITS\10\INCLUDE\10.0.10240.0\UCRT\CORECRT_WIO.H
C:\PROGRAM FILES (X86)\WINDOWS KITS\10\INCLUDE\10.0.10240.0\UCRT\CORECRT_SHARE.H
C:\PROGRAM FILES (X86)\WINDOWS KITS\10\INCLUDE\10.0.10240.0\UCRT\CORECRT_WPROCESS.H
C:\PROGRAM FILES (X86)\WINDOWS KITS\10\INCLUDE\10.0.10240.0\UCRT\CORECRT_WTIME.H
C:\PROGRAM FILES (X86)\WINDOWS KITS\10\INCLUDE\10.0.10240.0\UCRT\SYS\STAT.H
C:\PROGRAM FILES (X86)\WINDOWS KITS\10\INCLUDE\10.0.10240.0\UCRT\SYS\TYPES.H
C:\PROGRAM FILES (X86)\MICROSOFT VISUAL STUDIO 14.0\VC\INCLUDE\NEW
C:\PROGRAM FILES (X86)\MICROSOFT VISUAL STUDIO 14.0\VC\INCLUDE\VCRUNTIME_NEW.H
C:\PROGRAM FILES (X86)\MICROSOFT VISUAL STUDIO 14.0\VC\INCLUDE\XUTILITY
C:\PROGRAM FILES (X86)\MICROSOFT VISUAL STUDIO 14.0\VC\INCLUDE\UTILITY
C:\PROGRAM FILES (X86)\MICROSOFT VISUAL STUDIO 14.0\VC\INCLUDE\IOSFWD
C:\PROGRAM FILES (X86)\WINDOWS KITS\10\INCLUDE\10.0.10240.0\UCRT\CRTDBG.H
C:\PROGRAM FILES (X86)\MICROSOFT VISUAL STUDIO 14.0\VC\INCLUDE\VCRUNTIME_NEW_DEBUG.H
C:\PROGRAM FILES (X86)\MICROSOFT VISUAL STUDIO 14.0\VC\INCLUDE\XATOMIC0.H
C:\PROGRAM FILES (X86)\MICROSOFT VISUAL STUDIO 14.0\VC\INCLUDE\INTRIN.H
C:\PROGRAM FILES (X86)\MICROSOFT VISUAL STUDIO 14.0\VC\INCLUDE\SETJMP.H
C:\PROGRAM FILES (X86)\MICROSOFT VISUAL STUDIO 14.0\VC\INCLUDE\IMMINTRIN.H
C:\PROGRAM FILES (X86)\MICROSOFT VISUAL STUDIO 14.0\VC\INCLUDE\WMMINTRIN.H
C:\PROGRAM FILES (X86)\MICROSOFT VISUAL STUDIO 14.0\VC\INCLUDE\NMMINTRIN.H
C:\PROGRAM FILES (X86)\MICROSOFT VISUAL STUDIO 14.0\VC\INCLUDE\SMMINTRIN.H
C:\PROGRAM FILES (X86)\MICROSOFT VISUAL STUDIO 14.0\VC\INCLUDE\TMMINTRIN.H
C:\PROGRAM FILES (X86)\MICROSOFT VISUAL STUDIO 14.0\VC\INCLUDE\PMMINTRIN.H
C:\PROGRAM FILES (X86)\MICROSOFT VISUAL STUDIO 14.0\VC\INCLUDE\EMMINTRIN.H
C:\PROGRAM FILES (X86)\MICROSOFT VISUAL STUDIO 14.0\VC\INCLUDE\XMMINTRIN.H
C:\PROGRAM FILES (X86)\MICROSOFT VISUAL STUDIO 14.0\VC\INCLUDE\MMINTRIN.H
C:\PROGRAM FILES (X86)\MICROSOFT VISUAL STUDIO 14.0\VC\INCLUDE\AMMINTRIN.H
C:\PROGRAM FILES (X86)\MICROSOFT VISUAL STUDIO 14.0\VC\INCLUDE\MM3DNOW.H
C:\PROGRAM FILES (X86)\MICROSOFT VISUAL STUDIO 14.0\VC\INCLUDE\TYPEINFO
C:\PROGRAM FILES (X86)\MICROSOFT VISUAL STUDIO 14.0\VC\INCLUDE\VCRUNTIME_TYPEINFO.H
C:\PROGRAM FILES (X86)\MICROSOFT VISUAL STUDIO 14.0\VC\INCLUDE\XLOCINFO
C:\PROGRAM FILES (X86)\MICROSOFT VISUAL STUDIO 14.0\VC\INCLUDE\XLOCINFO.H
C:\PROGRAM FILES (X86)\WINDOWS KITS\10\INCLUDE\10.0.10240.0\UCRT\CTYPE.H
C:\PROGRAM FILES (X86)\WINDOWS KITS\10\INCLUDE\10.0.10240.0\UCRT\LOCALE.H
C:\PROGRAM FILES (X86)\MICROSOFT VISUAL STUDIO 14.0\VC\INCLUDE\XFACET
C:\PROGRAM FILES (X86)\MICROSOFT VISUAL STUDIO 14.0\VC\INCLUDE\SYSTEM_ERROR
C:\PROGRAM FILES (X86)\MICROSOFT VISUAL STUDIO 14.0\VC\INCLUDE\CERRNO
C:\PROGRAM FILES (X86)\WINDOWS KITS\10\INCLUDE\10.0.10240.0\UCRT\SHARE.H
C:\PROGRAM FILES (X86)\MICROSOFT VISUAL STUDIO 14.0\VC\INCLUDE\FSTREAM
C:\USERS\STACKNIT\DROPBOX\EVENTGLYPH\LIBRARIES\GLM\GLM.HPP
C:\USERS\STACKNIT\DROPBOX\EVENTGLYPH\LIBRARIES\GLM\DETAIL\_FIXES.HPP
C:\PROGRAM FILES (X86)\MICROSOFT VISUAL STUDIO 14.0\VC\INCLUDE\CASSERT
C:\PROGRAM FILES (X86)\WINDOWS KITS\10\INCLUDE\10.0.10240.0\UCRT\ASSERT.H
C:\USERS\STACKNIT\DROPBOX\EVENTGLYPH\LIBRARIES\GLM\FWD.HPP
C:\USERS\STACKNIT\DROPBOX\EVENTGLYPH\LIBRARIES\GLM\DETAIL\TYPE_INT.HPP
C:\USERS\STACKNIT\DROPBOX\EVENTGLYPH\LIBRARIES\GLM\DETAIL\SETUP.HPP
C:\USERS\STACKNIT\DROPBOX\EVENTGLYPH\LIBRARIES\GLM\SIMD\PLATFORM.H
C:\USERS\STACKNIT\DROPBOX\EVENTGLYPH\LIBRARIES\GLM\DETAIL\TYPE_FLOAT.HPP
C:\USERS\STACKNIT\DROPBOX\EVENTGLYPH\LIBRARIES\GLM\DETAIL\TYPE_VEC.HPP
C:\USERS\STACKNIT\DROPBOX\EVENTGLYPH\LIBRARIES\GLM\DETAIL\PRECISION.HPP
C:\USERS\STACKNIT\DROPBOX\EVENTGLYPH\LIBRARIES\GLM\DETAIL\TYPE_MAT.HPP
C:\USERS\STACKNIT\DROPBOX\EVENTGLYPH\LIBRARIES\GLM\VEC2.HPP
C:\USERS\STACKNIT\DROPBOX\EVENTGLYPH\LIBRARIES\GLM\DETAIL\TYPE_VEC2.HPP
C:\USERS\STACKNIT\DROPBOX\EVENTGLYPH\LIBRARIES\GLM\DETAIL\TYPE_VEC2.INL
C:\USERS\STACKNIT\DROPBOX\EVENTGLYPH\LIBRARIES\GLM\VEC3.HPP
C:\USERS\STACKNIT\DROPBOX\EVENTGLYPH\LIBRARIES\GLM\DETAIL\TYPE_VEC3.HPP
C:\USERS\STACKNIT\DROPBOX\EVENTGLYPH\LIBRARIES\GLM\DETAIL\TYPE_VEC3.INL
C:\USERS\STACKNIT\DROPBOX\EVENTGLYPH\LIBRARIES\GLM\VEC4.HPP
C:\USERS\STACKNIT\DROPBOX\EVENTGLYPH\LIBRARIES\GLM\DETAIL\TYPE_VEC4.HPP
C:\USERS\STACKNIT\DROPBOX\EVENTGLYPH\LIBRARIES\GLM\DETAIL\TYPE_VEC4.INL
C:\USERS\STACKNIT\DROPBOX\EVENTGLYPH\LIBRARIES\GLM\DETAIL\TYPE_VEC4_SIMD.INL
C:\USERS\STACKNIT\DROPBOX\EVENTGLYPH\LIBRARIES\GLM\MAT2X2.HPP
C:\USERS\STACKNIT\DROPBOX\EVENTGLYPH\LIBRARIES\GLM\DETAIL\TYPE_MAT2X2.HPP
C:\USERS\STACKNIT\DROPBOX\EVENTGLYPH\LIBRARIES\GLM\DETAIL\TYPE_MAT2X2.INL
C:\USERS\STACKNIT\DROPBOX\EVENTGLYPH\LIBRARIES\GLM\DETAIL\FUNC_MATRIX.HPP
C:\USERS\STACKNIT\DROPBOX\EVENTGLYPH\LIBRARIES\GLM\MAT2X3.HPP
C:\USERS\STACKNIT\DROPBOX\EVENTGLYPH\LIBRARIES\GLM\DETAIL\TYPE_MAT2X3.HPP
C:\USERS\STACKNIT\DROPBOX\EVENTGLYPH\LIBRARIES\GLM\DETAIL\TYPE_MAT2X3.INL
C:\USERS\STACKNIT\DROPBOX\EVENTGLYPH\LIBRARIES\GLM\MAT2X4.HPP
C:\USERS\STACKNIT\DROPBOX\EVENTGLYPH\LIBRARIES\GLM\DETAIL\TYPE_MAT2X4.HPP
C:\USERS\STACKNIT\DROPBOX\EVENTGLYPH\LIBRARIES\GLM\DETAIL\TYPE_MAT2X4.INL
C:\USERS\STACKNIT\DROPBOX\EVENTGLYPH\LIBRARIES\GLM\MAT3X2.HPP
C:\USERS\STACKNIT\DROPBOX\EVENTGLYPH\LIBRARIES\GLM\DETAIL\TYPE_MAT3X2.HPP
C:\USERS\STACKNIT\DROPBOX\EVENTGLYPH\LIBRARIES\GLM\DETAIL\TYPE_MAT3X2.INL
C:\USERS\STACKNIT\DROPBOX\EVENTGLYPH\LIBRARIES\GLM\MAT3X3.HPP
C:\USERS\STACKNIT\DROPBOX\EVENTGLYPH\LIBRARIES\GLM\DETAIL\TYPE_MAT3X3.HPP
C:\USERS\STACKNIT\DROPBOX\EVENTGLYPH\LIBRARIES\GLM\DETAIL\TYPE_MAT3X3.INL
C:\USERS\STACKNIT\DROPBOX\EVENTGLYPH\LIBRARIES\GLM\MAT3X4.HPP
C:\USERS\STACKNIT\DROPBOX\EVENTGLYPH\LIBRARIES\GLM\DETAIL\TYPE_MAT3X4.HPP
C:\USERS\STACKNIT\DROPBOX\EVENTGLYPH\LIBRARIES\GLM\DETAIL\TYPE_MAT3X4.INL
C:\USERS\STACKNIT\DROPBOX\EVENTGLYPH\LIBRARIES\GLM\MAT4X2.HPP
C:\USERS\STACKNIT\DROPBOX\EVENTGLYPH\LIBRARIES\GLM\DETAIL\TYPE_MAT4X2.HPP
C:\USERS\STACKNIT\DROPBOX\EVENTGLYPH\LIBRARIES\GLM\DETAIL\TYPE_MAT4X2.INL
C:\USERS\STACKNIT\DROPBOX\EVENTGLYPH\LIBRARIES\GLM\MAT4X3.HPP
C:\USERS\STACKNIT\DROPBOX\EVENTGLYPH\LIBRARIES\GLM\DETAIL\TYPE_MAT4X3.HPP
C:\USERS\STACKNIT\DROPBOX\EVENTGLYPH\LIBRARIES\GLM\DETAIL\TYPE_MAT4X3.INL
C:\USERS\STACKNIT\DROPBOX\EVENTGLYPH\LIBRARIES\GLM\MAT4X4.HPP
C:\USERS\STACKNIT\DROPBOX\EVENTGLYPH\LIBRARIES\GLM\DETAIL\TYPE_MAT4X4.HPP
C:\USERS\STACKNIT\DROPBOX\EVENTGLYPH\LIBRARIES\GLM\DETAIL\TYPE_MAT4X4.INL
C:\USERS\STACKNIT\DROPBOX\EVENTGLYPH\LIBRARIES\GLM\DETAIL\TYPE_MAT4X4_SIMD.INL
C:\USERS\STACKNIT\DROPBOX\EVENTGLYPH\LIBRARIES\GLM\DETAIL\FUNC_MATRIX.INL
C:\USERS\STACKNIT\DROPBOX\EVENTGLYPH\LIBRARIES\GLM\GEOMETRIC.HPP
C:\USERS\STACKNIT\DROPBOX\EVENTGLYPH\LIBRARIES\GLM\DETAIL\FUNC_GEOMETRIC.HPP
C:\USERS\STACKNIT\DROPBOX\EVENTGLYPH\LIBRARIES\GLM\DETAIL\FUNC_GEOMETRIC.INL
C:\USERS\STACKNIT\DROPBOX\EVENTGLYPH\LIBRARIES\GLM\DETAIL\FUNC_EXPONENTIAL.HPP
C:\USERS\STACKNIT\DROPBOX\EVENTGLYPH\LIBRARIES\GLM\DETAIL\TYPE_VEC1.HPP
C:\USERS\STACKNIT\DROPBOX\EVENTGLYPH\LIBRARIES\GLM\DETAIL\TYPE_VEC1.INL
C:\USERS\STACKNIT\DROPBOX\EVENTGLYPH\LIBRARIES\GLM\DETAIL\FUNC_EXPONENTIAL.INL
C:\USERS\STACKNIT\DROPBOX\EVENTGLYPH\LIBRARIES\GLM\DETAIL\FUNC_VECTOR_RELATIONAL.HPP
C:\USERS\STACKNIT\DROPBOX\EVENTGLYPH\LIBRARIES\GLM\DETAIL\FUNC_VECTOR_RELATIONAL.INL
C:\USERS\STACKNIT\DROPBOX\EVENTGLYPH\LIBRARIES\GLM\DETAIL\FUNC_VECTOR_RELATIONAL_SIMD.INL
C:\USERS\STACKNIT\DROPBOX\EVENTGLYPH\LIBRARIES\GLM\DETAIL\_VECTORIZE.HPP
C:\USERS\STACKNIT\DROPBOX\EVENTGLYPH\LIBRARIES\GLM\DETAIL\FUNC_EXPONENTIAL_SIMD.INL
C:\USERS\STACKNIT\DROPBOX\EVENTGLYPH\LIBRARIES\GLM\SIMD\EXPONENTIAL.H
C:\USERS\STACKNIT\DROPBOX\EVENTGLYPH\LIBRARIES\GLM\DETAIL\FUNC_COMMON.HPP
C:\USERS\STACKNIT\DROPBOX\EVENTGLYPH\LIBRARIES\GLM\DETAIL\FUNC_COMMON.INL
C:\USERS\STACKNIT\DROPBOX\EVENTGLYPH\LIBRARIES\GLM\DETAIL\FUNC_COMMON_SIMD.INL
C:\USERS\STACKNIT\DROPBOX\EVENTGLYPH\LIBRARIES\GLM\SIMD\COMMON.H
C:\USERS\STACKNIT\DROPBOX\EVENTGLYPH\LIBRARIES\GLM\DETAIL\FUNC_GEOMETRIC_SIMD.INL
C:\USERS\STACKNIT\DROPBOX\EVENTGLYPH\LIBRARIES\GLM\SIMD\GEOMETRIC.H
C:\USERS\STACKNIT\DROPBOX\EVENTGLYPH\LIBRARIES\GLM\DETAIL\FUNC_MATRIX_SIMD.INL
C:\USERS\STACKNIT\DROPBOX\EVENTGLYPH\LIBRARIES\GLM\SIMD\MATRIX.H
C:\USERS\STACKNIT\DROPBOX\EVENTGLYPH\LIBRARIES\GLM\TRIGONOMETRIC.HPP
C:\USERS\STACKNIT\DROPBOX\EVENTGLYPH\LIBRARIES\GLM\DETAIL\FUNC_TRIGONOMETRIC.HPP
C:\USERS\STACKNIT\DROPBOX\EVENTGLYPH\LIBRARIES\GLM\DETAIL\FUNC_TRIGONOMETRIC.INL
C:\USERS\STACKNIT\DROPBOX\EVENTGLYPH\LIBRARIES\GLM\DETAIL\FUNC_TRIGONOMETRIC_SIMD.INL
C:\USERS\STACKNIT\DROPBOX\EVENTGLYPH\LIBRARIES\GLM\EXPONENTIAL.HPP
C:\USERS\STACKNIT\DROPBOX\EVENTGLYPH\LIBRARIES\GLM\COMMON.HPP
C:\USERS\STACKNIT\DROPBOX\EVENTGLYPH\LIBRARIES\GLM\PACKING.HPP
C:\USERS\STACKNIT\DROPBOX\EVENTGLYPH\LIBRARIES\GLM\DETAIL\FUNC_PACKING.HPP
C:\USERS\STACKNIT\DROPBOX\EVENTGLYPH\LIBRARIES\GLM\DETAIL\FUNC_PACKING.INL
C:\USERS\STACKNIT\DROPBOX\EVENTGLYPH\LIBRARIES\GLM\DETAIL\TYPE_HALF.HPP
C:\USERS\STACKNIT\DROPBOX\EVENTGLYPH\LIBRARIES\GLM\DETAIL\TYPE_HALF.INL
C:\USERS\STACKNIT\DROPBOX\EVENTGLYPH\LIBRARIES\GLM\DETAIL\FUNC_PACKING_SIMD.INL
C:\USERS\STACKNIT\DROPBOX\EVENTGLYPH\LIBRARIES\GLM\MATRIX.HPP
C:\USERS\STACKNIT\DROPBOX\EVENTGLYPH\LIBRARIES\GLM\VECTOR_RELATIONAL.HPP
C:\USERS\STACKNIT\DROPBOX\EVENTGLYPH\LIBRARIES\GLM\INTEGER.HPP
C:\USERS\STACKNIT\DROPBOX\EVENTGLYPH\LIBRARIES\GLM\DETAIL\FUNC_INTEGER.HPP
C:\USERS\STACKNIT\DROPBOX\EVENTGLYPH\LIBRARIES\GLM\DETAIL\FUNC_INTEGER.INL
C:\USERS\STACKNIT\DROPBOX\EVENTGLYPH\LIBRARIES\GLM\DETAIL\FUNC_INTEGER_SIMD.INL
C:\USERS\STACKNIT\DROPBOX\EVENTGLYPH\LIBRARIES\GLM\SIMD\INTEGER.H
C:\PROGRAM FILES (X86)\MICROSOFT VISUAL STUDIO 14.0\VC\INCLUDE\IOSTREAM
C:\USERS\STACKNIT\DROPBOX\EVENTGLYPH\EVENTGLYPH\EVENT_PROCESSOR.HPP
C:\USERS\STACKNIT\DROPBOX\EVENTGLYPH\EVENTGLYPH\GLYPH_RENDERER.HPP
C:\USERS\STACKNIT\DROPBOX\EVENTGLYPH\PACKAGES\NUPENGL.CORE.0.1.0.1\BUILD\NATIVE\INCLUDE\GL\GLEW.H
C:\PROGRAM FILES (X86)\WINDOWS KITS\8.1\INCLUDE\UM\GL\GLU.H
C:\PROGRAM FILES (X86)\WINDOWS KITS\8.1\INCLUDE\SHARED\WINAPIFAMILY.H
C:\PROGRAM FILES (X86)\WINDOWS KITS\8.1\INCLUDE\UM\GL\GL.H
C:\USERS\STACKNIT\DROPBOX\EVENTGLYPH\PACKAGES\NUPENGL.CORE.0.1.0.1\BUILD\NATIVE\INCLUDE\GLFW\GLFW3.H
C:\USERS\STACKNIT\DROPBOX\EVENTGLYPH\EVENTGLYPH\SHADER_TOOLKIT.HPP
C:\USERS\STACKNIT\DROPBOX\EVENTGLYPH\LIBRARIES\GLM\GTC\MATRIX_TRANSFORM.HPP
C:\USERS\STACKNIT\DROPBOX\EVENTGLYPH\LIBRARIES\GLM\GTC\CONSTANTS.HPP
C:\USERS\STACKNIT\DROPBOX\EVENTGLYPH\LIBRARIES\GLM\GTC\CONSTANTS.INL
C:\USERS\STACKNIT\DROPBOX\EVENTGLYPH\LIBRARIES\GLM\GTC\MATRIX_TRANSFORM.INL
^C:\USERS\STACKNIT\DROPBOX\EVENTGLYPH\EVENTGLYPH\MMSE_FILE.CPP
C:\WINDOWS\GLOBALIZATION\SORTING\SORTDEFAULT.NLS
C:\PROGRAM FILES (X86)\MICROSOFT VISUAL STUDIO 14.0\VC\BIN\1031\CLUI.DLL
C:\PROGRAM FILES (X86)\MICROSOFT VISUAL STUDIO 14.0\VC\BIN\MSPDBSRV.EXE
C:\WINDOWS\SYSTEM32\TZRES.DLL
C:\USERS\STACKNIT\DROPBOX\EVENTGLYPH\EVENTGLYPH\MMSE_FILE.HPP
C:\PROGRAM FILES (X86)\MICROSOFT VISUAL STUDIO 14.0\VC\INCLUDE\STRING
C:\PROGRAM FILES (X86)\MICROSOFT VISUAL STUDIO 14.0\VC\INCLUDE\ISTREAM
C:\PROGRAM FILES (X86)\MICROSOFT VISUAL STUDIO 14.0\VC\INCLUDE\OSTREAM
C:\PROGRAM FILES (X86)\MICROSOFT VISUAL STUDIO 14.0\VC\INCLUDE\IOS
C:\PROGRAM FILES (X86)\MICROSOFT VISUAL STUDIO 14.0\VC\INCLUDE\XLOCNUM
C:\PROGRAM FILES (X86)\MICROSOFT VISUAL STUDIO 14.0\VC\INCLUDE\CLIMITS
C:\PROGRAM FILES (X86)\MICROSOFT VISUAL STUDIO 14.0\VC\INCLUDE\YVALS.H
C:\PROGRAM FILES (X86)\MICROSOFT VISUAL STUDIO 14.0\VC\INCLUDE\XKEYCHECK.H
C:\PROGRAM FILES (X86)\MICROSOFT VISUAL STUDIO 14.0\VC\INCLUDE\CRTDEFS.H
C:\PROGRAM FILES (X86)\MICROSOFT VISUAL STUDIO 14.0\VC\INCLUDE\VCRUNTIME.H
C:\PROGRAM FILES (X86)\MICROSOFT VISUAL STUDIO 14.0\VC\INCLUDE\SAL.H
C:\PROGRAM FILES (X86)\MICROSOFT VISUAL STUDIO 14.0\VC\INCLUDE\CONCURRENCYSAL.H
C:\PROGRAM FILES (X86)\MICROSOFT VISUAL STUDIO 14.0\VC\INCLUDE\VADEFS.H
C:\PROGRAM FILES (X86)\WINDOWS KITS\10\INCLUDE\10.0.10240.0\UCRT\CORECRT.H
C:\PROGRAM FILES (X86)\MICROSOFT VISUAL STUDIO 14.0\VC\INCLUDE\USE_ANSI.H
C:\PROGRAM FILES (X86)\MICROSOFT VISUAL STUDIO 14.0\VC\INCLUDE\LIMITS.H
C:\PROGRAM FILES (X86)\MICROSOFT VISUAL STUDIO 14.0\VC\INCLUDE\CMATH
C:\PROGRAM FILES (X86)\WINDOWS KITS\10\INCLUDE\10.0.10240.0\UCRT\MATH.H
C:\PROGRAM FILES (X86)\MICROSOFT VISUAL STUDIO 14.0\VC\INCLUDE\XTGMATH.H
C:\PROGRAM FILES (X86)\MICROSOFT VISUAL STUDIO 14.0\VC\INCLUDE\XTR1COMMON
C:\PROGRAM FILES (X86)\MICROSOFT VISUAL STUDIO 14.0\VC\INCLUDE\CSTDLIB
C:\PROGRAM FILES (X86)\WINDOWS KITS\10\INCLUDE\10.0.10240.0\UCRT\STDLIB.H
C:\PROGRAM FILES (X86)\WINDOWS KITS\10\INCLUDE\10.0.10240.0\UCRT\CORECRT_MALLOC.H
C:\PROGRAM FILES (X86)\WINDOWS KITS\10\INCLUDE\10.0.10240.0\UCRT\CORECRT_SEARCH.H
C:\PROGRAM FILES (X86)\WINDOWS KITS\10\INCLUDE\10.0.10240.0\UCRT\STDDEF.H
C:\PROGRAM FILES (X86)\WINDOWS KITS\10\INCLUDE\10.0.10240.0\UCRT\CORECRT_WSTDLIB.H
C:\PROGRAM FILES (X86)\MICROSOFT VISUAL STUDIO 14.0\VC\INCLUDE\CSTDIO
C:\PROGRAM FILES (X86)\WINDOWS KITS\10\INCLUDE\10.0.10240.0\UCRT\STDIO.H
C:\PROGRAM FILES (X86)\WINDOWS KITS\10\INCLUDE\10.0.10240.0\UCRT\CORECRT_WSTDIO.H
C:\PROGRAM FILES (X86)\WINDOWS KITS\10\INCLUDE\10.0.10240.0\UCRT\CORECRT_STDIO_CONFIG.H
C:\PROGRAM FILES (X86)\MICROSOFT VISUAL STUDIO 14.0\VC\INCLUDE\STREAMBUF
C:\PROGRAM FILES (X86)\MICROSOFT VISUAL STUDIO 14.0\VC\INCLUDE\XIOSBASE
C:\PROGRAM FILES (X86)\MICROSOFT VISUAL STUDIO 14.0\VC\INCLUDE\XLOCALE
C:\PROGRAM FILES (X86)\MICROSOFT VISUAL STUDIO 14.0\VC\INCLUDE\CSTRING
C:\PROGRAM FILES (X86)\WINDOWS KITS\10\INCLUDE\10.0.10240.0\UCRT\STRING.H
C:\PROGRAM FILES (X86)\WINDOWS KITS\10\INCLUDE\10.0.10240.0\UCRT\CORECRT_MEMORY.H
C:\PROGRAM FILES (X86)\WINDOWS KITS\10\INCLUDE\10.0.10240.0\UCRT\CORECRT_MEMCPY_S.H
C:\PROGRAM FILES (X86)\WINDOWS KITS\10\INCLUDE\10.0.10240.0\UCRT\ERRNO.H
C:\PROGRAM FILES (X86)\MICROSOFT VISUAL STUDIO 14.0\VC\INCLUDE\VCRUNTIME_STRING.H
C:\PROGRAM FILES (X86)\WINDOWS KITS\10\INCLUDE\10.0.10240.0\UCRT\CORECRT_WSTRING.H
C:\PROGRAM FILES (X86)\MICROSOFT VISUAL STUDIO 14.0\VC\INCLUDE\STDEXCEPT
C:\PROGRAM FILES (X86)\MICROSOFT VISUAL STUDIO 14.0\VC\INCLUDE\EXCEPTION
C:\PROGRAM FILES (X86)\MICROSOFT VISUAL STUDIO 14.0\VC\INCLUDE\TYPE_TRAITS
C:\PROGRAM FILES (X86)\MICROSOFT VISUAL STUDIO 14.0\VC\INCLUDE\XSTDDEF
C:\PROGRAM FILES (X86)\MICROSOFT VISUAL STUDIO 14.0\VC\INCLUDE\CSTDDEF
C:\PROGRAM FILES (X86)\MICROSOFT VISUAL STUDIO 14.0\VC\INCLUDE\INITIALIZER_LIST
C:\PROGRAM FILES (X86)\WINDOWS KITS\10\INCLUDE\10.0.10240.0\UCRT\MALLOC.H
C:\PROGRAM FILES (X86)\MICROSOFT VISUAL STUDIO 14.0\VC\INCLUDE\VCRUNTIME_EXCEPTION.H
C:\PROGRAM FILES (X86)\MICROSOFT VISUAL STUDIO 14.0\VC\INCLUDE\EH.H
C:\PROGRAM FILES (X86)\WINDOWS KITS\10\INCLUDE\10.0.10240.0\UCRT\CORECRT_TERMINATE.H
C:\PROGRAM FILES (X86)\MICROSOFT VISUAL STUDIO 14.0\VC\INCLUDE\XSTRING
C:\PROGRAM FILES (X86)\MICROSOFT VISUAL STUDIO 14.0\VC\INCLUDE\XMEMORY0
C:\PROGRAM FILES (X86)\MICROSOFT VISUAL STUDIO 14.0\VC\INCLUDE\CSTDINT
C:\PROGRAM FILES (X86)\MICROSOFT VISUAL STUDIO 14.0\VC\INCLUDE\STDINT.H
C:\PROGRAM FILES (X86)\MICROSOFT VISUAL STUDIO 14.0\VC\INCLUDE\LIMITS
C:\PROGRAM FILES (X86)\MICROSOFT VISUAL STUDIO 14.0\VC\INCLUDE\YMATH.H
C:\PROGRAM FILES (X86)\MICROSOFT VISUAL STUDIO 14.0\VC\INCLUDE\CFLOAT
C:\PROGRAM FILES (X86)\WINDOWS KITS\10\INCLUDE\10.0.10240.0\UCRT\FLOAT.H
C:\PROGRAM FILES (X86)\MICROSOFT VISUAL STUDIO 14.0\VC\INCLUDE\CWCHAR
C:\PROGRAM FILES (X86)\WINDOWS KITS\10\INCLUDE\10.0.10240.0\UCRT\WCHAR.H
C:\PROGRAM FILES (X86)\WINDOWS KITS\10\INCLUDE\10.0.10240.0\UCRT\CORECRT_WCONIO.H
C:\PROGRAM FILES (X86)\WINDOWS KITS\10\INCLUDE\10.0.10240.0\UCRT\CORECRT_WCTYPE.H
C:\PROGRAM FILES (X86)\WINDOWS KITS\10\INCLUDE\10.0.10240.0\UCRT\CORECRT_WDIRECT.H
C:\PROGRAM FILES (X86)\WINDOWS KITS\10\INCLUDE\10.0.10240.0\UCRT\CORECRT_WIO.H
C:\PROGRAM FILES (X86)\WINDOWS KITS\10\INCLUDE\10.0.10240.0\UCRT\CORECRT_SHARE.H
C:\PROGRAM FILES (X86)\WINDOWS KITS\10\INCLUDE\10.0.10240.0\UCRT\CORECRT_WPROCESS.H
C:\PROGRAM FILES (X86)\WINDOWS KITS\10\INCLUDE\10.0.10240.0\UCRT\CORECRT_WTIME.H
C:\PROGRAM FILES (X86)\WINDOWS KITS\10\INCLUDE\10.0.10240.0\UCRT\SYS\STAT.H
C:\PROGRAM FILES (X86)\WINDOWS KITS\10\INCLUDE\10.0.10240.0\UCRT\SYS\TYPES.H
C:\PROGRAM FILES (X86)\MICROSOFT VISUAL STUDIO 14.0\VC\INCLUDE\NEW
C:\PROGRAM FILES (X86)\MICROSOFT VISUAL STUDIO 14.0\VC\INCLUDE\VCRUNTIME_NEW.H
C:\PROGRAM FILES (X86)\MICROSOFT VISUAL STUDIO 14.0\VC\INCLUDE\XUTILITY
C:\PROGRAM FILES (X86)\MICROSOFT VISUAL STUDIO 14.0\VC\INCLUDE\UTILITY
C:\PROGRAM FILES (X86)\MICROSOFT VISUAL STUDIO 14.0\VC\INCLUDE\IOSFWD
C:\PROGRAM FILES (X86)\WINDOWS KITS\10\INCLUDE\10.0.10240.0\UCRT\CRTDBG.H
C:\PROGRAM FILES (X86)\MICROSOFT VISUAL STUDIO 14.0\VC\INCLUDE\VCRUNTIME_NEW_DEBUG.H
C:\PROGRAM FILES (X86)\MICROSOFT VISUAL STUDIO 14.0\VC\INCLUDE\XATOMIC0.H
C:\PROGRAM FILES (X86)\MICROSOFT VISUAL STUDIO 14.0\VC\INCLUDE\INTRIN.H
C:\PROGRAM FILES (X86)\MICROSOFT VISUAL STUDIO 14.0\VC\INCLUDE\SETJMP.H
C:\PROGRAM FILES (X86)\MICROSOFT VISUAL STUDIO 14.0\VC\INCLUDE\IMMINTRIN.H
C:\PROGRAM FILES (X86)\MICROSOFT VISUAL STUDIO 14.0\VC\INCLUDE\WMMINTRIN.H
C:\PROGRAM FILES (X86)\MICROSOFT VISUAL STUDIO 14.0\VC\INCLUDE\NMMINTRIN.H
C:\PROGRAM FILES (X86)\MICROSOFT VISUAL STUDIO 14.0\VC\INCLUDE\SMMINTRIN.H
C:\PROGRAM FILES (X86)\MICROSOFT VISUAL STUDIO 14.0\VC\INCLUDE\TMMINTRIN.H
C:\PROGRAM FILES (X86)\MICROSOFT VISUAL STUDIO 14.0\VC\INCLUDE\PMMINTRIN.H
C:\PROGRAM FILES (X86)\MICROSOFT VISUAL STUDIO 14.0\VC\INCLUDE\EMMINTRIN.H
C:\PROGRAM FILES (X86)\MICROSOFT VISUAL STUDIO 14.0\VC\INCLUDE\XMMINTRIN.H
C:\PROGRAM FILES (X86)\MICROSOFT VISUAL STUDIO 14.0\VC\INCLUDE\MMINTRIN.H
C:\PROGRAM FILES (X86)\MICROSOFT VISUAL STUDIO 14.0\VC\INCLUDE\AMMINTRIN.H
C:\PROGRAM FILES (X86)\MICROSOFT VISUAL STUDIO 14.0\VC\INCLUDE\MM3DNOW.H
C:\PROGRAM FILES (X86)\MICROSOFT VISUAL STUDIO 14.0\VC\INCLUDE\TYPEINFO
C:\PROGRAM FILES (X86)\MICROSOFT VISUAL STUDIO 14.0\VC\INCLUDE\VCRUNTIME_TYPEINFO.H
C:\PROGRAM FILES (X86)\MICROSOFT VISUAL STUDIO 14.0\VC\INCLUDE\XLOCINFO
C:\PROGRAM FILES (X86)\MICROSOFT VISUAL STUDIO 14.0\VC\INCLUDE\XLOCINFO.H
C:\PROGRAM FILES (X86)\WINDOWS KITS\10\INCLUDE\10.0.10240.0\UCRT\CTYPE.H
C:\PROGRAM FILES (X86)\WINDOWS KITS\10\INCLUDE\10.0.10240.0\UCRT\LOCALE.H
C:\PROGRAM FILES (X86)\MICROSOFT VISUAL STUDIO 14.0\VC\INCLUDE\XFACET
C:\PROGRAM FILES (X86)\MICROSOFT VISUAL STUDIO 14.0\VC\INCLUDE\SYSTEM_ERROR
C:\PROGRAM FILES (X86)\MICROSOFT VISUAL STUDIO 14.0\VC\INCLUDE\CERRNO
C:\PROGRAM FILES (X86)\WINDOWS KITS\10\INCLUDE\10.0.10240.0\UCRT\SHARE.H
C:\PROGRAM FILES (X86)\MICROSOFT VISUAL STUDIO 14.0\VC\INCLUDE\FSTREAM
C:\USERS\STACKNIT\DROPBOX\EVENTGLYPH\LIBRARIES\GLM\GLM.HPP
C:\USERS\STACKNIT\DROPBOX\EVENTGLYPH\LIBRARIES\GLM\DETAIL\_FIXES.HPP
C:\PROGRAM FILES (X86)\MICROSOFT VISUAL STUDIO 14.0\VC\INCLUDE\CASSERT
C:\PROGRAM FILES (X86)\WINDOWS KITS\10\INCLUDE\10.0.10240.0\UCRT\ASSERT.H
C:\USERS\STACKNIT\DROPBOX\EVENTGLYPH\LIBRARIES\GLM\FWD.HPP
C:\USERS\STACKNIT\DROPBOX\EVENTGLYPH\LIBRARIES\GLM\DETAIL\TYPE_INT.HPP
C:\USERS\STACKNIT\DROPBOX\EVENTGLYPH\LIBRARIES\GLM\DETAIL\SETUP.HPP
C:\USERS\STACKNIT\DROPBOX\EVENTGLYPH\LIBRARIES\GLM\SIMD\PLATFORM.H
C:\USERS\STACKNIT\DROPBOX\EVENTGLYPH\LIBRARIES\GLM\DETAIL\TYPE_FLOAT.HPP
C:\USERS\STACKNIT\DROPBOX\EVENTGLYPH\LIBRARIES\GLM\DETAIL\TYPE_VEC.HPP
C:\USERS\STACKNIT\DROPBOX\EVENTGLYPH\LIBRARIES\GLM\DETAIL\PRECISION.HPP
C:\USERS\STACKNIT\DROPBOX\EVENTGLYPH\LIBRARIES\GLM\DETAIL\TYPE_MAT.HPP
C:\USERS\STACKNIT\DROPBOX\EVENTGLYPH\LIBRARIES\GLM\VEC2.HPP
C:\USERS\STACKNIT\DROPBOX\EVENTGLYPH\LIBRARIES\GLM\DETAIL\TYPE_VEC2.HPP
C:\USERS\STACKNIT\DROPBOX\EVENTGLYPH\LIBRARIES\GLM\DETAIL\TYPE_VEC2.INL
C:\USERS\STACKNIT\DROPBOX\EVENTGLYPH\LIBRARIES\GLM\VEC3.HPP
C:\USERS\STACKNIT\DROPBOX\EVENTGLYPH\LIBRARIES\GLM\DETAIL\TYPE_VEC3.HPP
C:\USERS\STACKNIT\DROPBOX\EVENTGLYPH\LIBRARIES\GLM\DETAIL\TYPE_VEC3.INL
C:\USERS\STACKNIT\DROPBOX\EVENTGLYPH\LIBRARIES\GLM\VEC4.HPP
C:\USERS\STACKNIT\DROPBOX\EVENTGLYPH\LIBRARIES\GLM\DETAIL\TYPE_VEC4.HPP
C:\USERS\STACKNIT\DROPBOX\EVENTGLYPH\LIBRARIES\GLM\DETAIL\TYPE_VEC4.INL
C:\USERS\STACKNIT\DROPBOX\EVENTGLYPH\LIBRARIES\GLM\DETAIL\TYPE_VEC4_SIMD.INL
C:\USERS\STACKNIT\DROPBOX\EVENTGLYPH\LIBRARIES\GLM\MAT2X2.HPP
C:\USERS\STACKNIT\DROPBOX\EVENTGLYPH\LIBRARIES\GLM\DETAIL\TYPE_MAT2X2.HPP
C:\USERS\STACKNIT\DROPBOX\EVENTGLYPH\LIBRARIES\GLM\DETAIL\TYPE_MAT2X2.INL
C:\USERS\STACKNIT\DROPBOX\EVENTGLYPH\LIBRARIES\GLM\DETAIL\FUNC_MATRIX.HPP
C:\USERS\STACKNIT\DROPBOX\EVENTGLYPH\LIBRARIES\GLM\MAT2X3.HPP
C:\USERS\STACKNIT\DROPBOX\EVENTGLYPH\LIBRARIES\GLM\DETAIL\TYPE_MAT2X3.HPP
C:\USERS\STACKNIT\DROPBOX\EVENTGLYPH\LIBRARIES\GLM\DETAIL\TYPE_MAT2X3.INL
C:\USERS\STACKNIT\DROPBOX\EVENTGLYPH\LIBRARIES\GLM\MAT2X4.HPP
C:\USERS\STACKNIT\DROPBOX\EVENTGLYPH\LIBRARIES\GLM\DETAIL\TYPE_MAT2X4.HPP
C:\USERS\STACKNIT\DROPBOX\EVENTGLYPH\LIBRARIES\GLM\DETAIL\TYPE_MAT2X4.INL
C:\USERS\STACKNIT\DROPBOX\EVENTGLYPH\LIBRARIES\GLM\MAT3X2.HPP
C:\USERS\STACKNIT\DROPBOX\EVENTGLYPH\LIBRARIES\GLM\DETAIL\TYPE_MAT3X2.HPP
C:\USERS\STACKNIT\DROPBOX\EVENTGLYPH\LIBRARIES\GLM\DETAIL\TYPE_MAT3X2.INL
C:\USERS\STACKNIT\DROPBOX\EVENTGLYPH\LIBRARIES\GLM\MAT3X3.HPP
C:\USERS\STACKNIT\DROPBOX\EVENTGLYPH\LIBRARIES\GLM\DETAIL\TYPE_MAT3X3.HPP
C:\USERS\STACKNIT\DROPBOX\EVENTGLYPH\LIBRARIES\GLM\DETAIL\TYPE_MAT3X3.INL
C:\USERS\STACKNIT\DROPBOX\EVENTGLYPH\LIBRARIES\GLM\MAT3X4.HPP
C:\USERS\STACKNIT\DROPBOX\EVENTGLYPH\LIBRARIES\GLM\DETAIL\TYPE_MAT3X4.HPP
C:\USERS\STACKNIT\DROPBOX\EVENTGLYPH\LIBRARIES\GLM\DETAIL\TYPE_MAT3X4.INL
C:\USERS\STACKNIT\DROPBOX\EVENTGLYPH\LIBRARIES\GLM\MAT4X2.HPP
C:\USERS\STACKNIT\DROPBOX\EVENTGLYPH\LIBRARIES\GLM\DETAIL\TYPE_MAT4X2.HPP
C:\USERS\STACKNIT\DROPBOX\EVENTGLYPH\LIBRARIES\GLM\DETAIL\TYPE_MAT4X2.INL
C:\USERS\STACKNIT\DROPBOX\EVENTGLYPH\LIBRARIES\GLM\MAT4X3.HPP
C:\USERS\STACKNIT\DROPBOX\EVENTGLYPH\LIBRARIES\GLM\DETAIL\TYPE_MAT4X3.HPP
C:\USERS\STACKNIT\DROPBOX\EVENTGLYPH\LIBRARIES\GLM\DETAIL\TYPE_MAT4X3.INL
C:\USERS\STACKNIT\DROPBOX\EVENTGLYPH\LIBRARIES\GLM\MAT4X4.HPP
C:\USERS\STACKNIT\DROPBOX\EVENTGLYPH\LIBRARIES\GLM\DETAIL\TYPE_MAT4X4.HPP
C:\USERS\STACKNIT\DROPBOX\EVENTGLYPH\LIBRARIES\GLM\DETAIL\TYPE_MAT4X4.INL
C:\USERS\STACKNIT\DROPBOX\EVENTGLYPH\LIBRARIES\GLM\DETAIL\TYPE_MAT4X4_SIMD.INL
C:\USERS\STACKNIT\DROPBOX\EVENTGLYPH\LIBRARIES\GLM\DETAIL\FUNC_MATRIX.INL
C:\USERS\STACKNIT\DROPBOX\EVENTGLYPH\LIBRARIES\GLM\GEOMETRIC.HPP
C:\USERS\STACKNIT\DROPBOX\EVENTGLYPH\LIBRARIES\GLM\DETAIL\FUNC_GEOMETRIC.HPP
C:\USERS\STACKNIT\DROPBOX\EVENTGLYPH\LIBRARIES\GLM\DETAIL\FUNC_GEOMETRIC.INL
C:\USERS\STACKNIT\DROPBOX\EVENTGLYPH\LIBRARIES\GLM\DETAIL\FUNC_EXPONENTIAL.HPP
C:\USERS\STACKNIT\DROPBOX\EVENTGLYPH\LIBRARIES\GLM\DETAIL\TYPE_VEC1.HPP
C:\USERS\STACKNIT\DROPBOX\EVENTGLYPH\LIBRARIES\GLM\DETAIL\TYPE_VEC1.INL
C:\USERS\STACKNIT\DROPBOX\EVENTGLYPH\LIBRARIES\GLM\DETAIL\FUNC_EXPONENTIAL.INL
C:\USERS\STACKNIT\DROPBOX\EVENTGLYPH\LIBRARIES\GLM\DETAIL\FUNC_VECTOR_RELATIONAL.HPP
C:\USERS\STACKNIT\DROPBOX\EVENTGLYPH\LIBRARIES\GLM\DETAIL\FUNC_VECTOR_RELATIONAL.INL
C:\USERS\STACKNIT\DROPBOX\EVENTGLYPH\LIBRARIES\GLM\DETAIL\FUNC_VECTOR_RELATIONAL_SIMD.INL
C:\USERS\STACKNIT\DROPBOX\EVENTGLYPH\LIBRARIES\GLM\DETAIL\_VECTORIZE.HPP
C:\USERS\STACKNIT\DROPBOX\EVENTGLYPH\LIBRARIES\GLM\DETAIL\FUNC_EXPONENTIAL_SIMD.INL
C:\USERS\STACKNIT\DROPBOX\EVENTGLYPH\LIBRARIES\GLM\SIMD\EXPONENTIAL.H
C:\USERS\STACKNIT\DROPBOX\EVENTGLYPH\LIBRARIES\GLM\DETAIL\FUNC_COMMON.HPP
C:\USERS\STACKNIT\DROPBOX\EVENTGLYPH\LIBRARIES\GLM\DETAIL\FUNC_COMMON.INL
C:\USERS\STACKNIT\DROPBOX\EVENTGLYPH\LIBRARIES\GLM\DETAIL\FUNC_COMMON_SIMD.INL
C:\USERS\STACKNIT\DROPBOX\EVENTGLYPH\LIBRARIES\GLM\SIMD\COMMON.H
C:\USERS\STACKNIT\DROPBOX\EVENTGLYPH\LIBRARIES\GLM\DETAIL\FUNC_GEOMETRIC_SIMD.INL
C:\USERS\STACKNIT\DROPBOX\EVENTGLYPH\LIBRARIES\GLM\SIMD\GEOMETRIC.H
C:\USERS\STACKNIT\DROPBOX\EVENTGLYPH\LIBRARIES\GLM\DETAIL\FUNC_MATRIX_SIMD.INL
C:\USERS\STACKNIT\DROPBOX\EVENTGLYPH\LIBRARIES\GLM\SIMD\MATRIX.H
C:\USERS\STACKNIT\DROPBOX\EVENTGLYPH\LIBRARIES\GLM\TRIGONOMETRIC.HPP
C:\USERS\STACKNIT\DROPBOX\EVENTGLYPH\LIBRARIES\GLM\DETAIL\FUNC_TRIGONOMETRIC.HPP
C:\USERS\STACKNIT\DROPBOX\EVENTGLYPH\LIBRARIES\GLM\DETAIL\FUNC_TRIGONOMETRIC.INL
C:\USERS\STACKNIT\DROPBOX\EVENTGLYPH\LIBRARIES\GLM\DETAIL\FUNC_TRIGONOMETRIC_SIMD.INL
C:\USERS\STACKNIT\DROPBOX\EVENTGLYPH\LIBRARIES\GLM\EXPONENTIAL.HPP
C:\USERS\STACKNIT\DROPBOX\EVENTGLYPH\LIBRARIES\GLM\COMMON.HPP
C:\USERS\STACKNIT\DROPBOX\EVENTGLYPH\LIBRARIES\GLM\PACKING.HPP
C:\USERS\STACKNIT\DROPBOX\EVENTGLYPH\LIBRARIES\GLM\DETAIL\FUNC_PACKING.HPP
C:\USERS\STACKNIT\DROPBOX\EVENTGLYPH\LIBRARIES\GLM\DETAIL\FUNC_PACKING.INL
C:\USERS\STACKNIT\DROPBOX\EVENTGLYPH\LIBRARIES\GLM\DETAIL\TYPE_HALF.HPP
C:\USERS\STACKNIT\DROPBOX\EVENTGLYPH\LIBRARIES\GLM\DETAIL\TYPE_HALF.INL
C:\USERS\STACKNIT\DROPBOX\EVENTGLYPH\LIBRARIES\GLM\DETAIL\FUNC_PACKING_SIMD.INL
C:\USERS\STACKNIT\DROPBOX\EVENTGLYPH\LIBRARIES\GLM\MATRIX.HPP
C:\USERS\STACKNIT\DROPBOX\EVENTGLYPH\LIBRARIES\GLM\VECTOR_RELATIONAL.HPP
C:\USERS\STACKNIT\DROPBOX\EVENTGLYPH\LIBRARIES\GLM\INTEGER.HPP
C:\USERS\STACKNIT\DROPBOX\EVENTGLYPH\LIBRARIES\GLM\DETAIL\FUNC_INTEGER.HPP
C:\USERS\STACKNIT\DROPBOX\EVENTGLYPH\LIBRARIES\GLM\DETAIL\FUNC_INTEGER.INL
C:\USERS\STACKNIT\DROPBOX\EVENTGLYPH\LIBRARIES\GLM\DETAIL\FUNC_INTEGER_SIMD.INL
C:\USERS\STACKNIT\DROPBOX\EVENTGLYPH\LIBRARIES\GLM\SIMD\INTEGER.H
C:\PROGRAM FILES (X86)\MICROSOFT VISUAL STUDIO 14.0\VC\INCLUDE\IOSTREAM
^C:\USERS\STACKNIT\DROPBOX\EVENTGLYPH\EVENTGLYPH\GLYPH_RENDERER.CPP
C:\USERS\STACKNIT\DROPBOX\EVENTGLYPH\EVENTGLYPH\GLYPH_RENDERER.HPP
C:\USERS\STACKNIT\DROPBOX\EVENTGLYPH\EVENTGLYPH\EVENT_PROCESSOR.HPP
C:\USERS\STACKNIT\DROPBOX\EVENTGLYPH\EVENTGLYPH\MMSE_FILE.HPP
C:\PROGRAM FILES (X86)\MICROSOFT VISUAL STUDIO 14.0\VC\INCLUDE\STRING
C:\PROGRAM FILES (X86)\MICROSOFT VISUAL STUDIO 14.0\VC\INCLUDE\ISTREAM
C:\PROGRAM FILES (X86)\MICROSOFT VISUAL STUDIO 14.0\VC\INCLUDE\OSTREAM
C:\PROGRAM FILES (X86)\MICROSOFT VISUAL STUDIO 14.0\VC\INCLUDE\IOS
C:\PROGRAM FILES (X86)\MICROSOFT VISUAL STUDIO 14.0\VC\INCLUDE\XLOCNUM
C:\PROGRAM FILES (X86)\MICROSOFT VISUAL STUDIO 14.0\VC\INCLUDE\CLIMITS
C:\PROGRAM FILES (X86)\MICROSOFT VISUAL STUDIO 14.0\VC\INCLUDE\YVALS.H
C:\PROGRAM FILES (X86)\MICROSOFT VISUAL STUDIO 14.0\VC\INCLUDE\XKEYCHECK.H
C:\PROGRAM FILES (X86)\MICROSOFT VISUAL STUDIO 14.0\VC\INCLUDE\CRTDEFS.H
C:\PROGRAM FILES (X86)\MICROSOFT VISUAL STUDIO 14.0\VC\INCLUDE\VCRUNTIME.H
C:\PROGRAM FILES (X86)\MICROSOFT VISUAL STUDIO 14.0\VC\INCLUDE\SAL.H
C:\PROGRAM FILES (X86)\MICROSOFT VISUAL STUDIO 14.0\VC\INCLUDE\CONCURRENCYSAL.H
C:\PROGRAM FILES (X86)\MICROSOFT VISUAL STUDIO 14.0\VC\INCLUDE\VADEFS.H
C:\PROGRAM FILES (X86)\WINDOWS KITS\10\INCLUDE\10.0.10240.0\UCRT\CORECRT.H
C:\PROGRAM FILES (X86)\MICROSOFT VISUAL STUDIO 14.0\VC\INCLUDE\USE_ANSI.H
C:\PROGRAM FILES (X86)\MICROSOFT VISUAL STUDIO 14.0\VC\INCLUDE\LIMITS.H
C:\PROGRAM FILES (X86)\MICROSOFT VISUAL STUDIO 14.0\VC\INCLUDE\CMATH
C:\PROGRAM FILES (X86)\WINDOWS KITS\10\INCLUDE\10.0.10240.0\UCRT\MATH.H
C:\PROGRAM FILES (X86)\MICROSOFT VISUAL STUDIO 14.0\VC\INCLUDE\XTGMATH.H
C:\PROGRAM FILES (X86)\MICROSOFT VISUAL STUDIO 14.0\VC\INCLUDE\XTR1COMMON
C:\PROGRAM FILES (X86)\MICROSOFT VISUAL STUDIO 14.0\VC\INCLUDE\CSTDLIB
C:\PROGRAM FILES (X86)\WINDOWS KITS\10\INCLUDE\10.0.10240.0\UCRT\STDLIB.H
C:\PROGRAM FILES (X86)\WINDOWS KITS\10\INCLUDE\10.0.10240.0\UCRT\CORECRT_MALLOC.H
C:\PROGRAM FILES (X86)\WINDOWS KITS\10\INCLUDE\10.0.10240.0\UCRT\CORECRT_SEARCH.H
C:\PROGRAM FILES (X86)\WINDOWS KITS\10\INCLUDE\10.0.10240.0\UCRT\STDDEF.H
C:\PROGRAM FILES (X86)\WINDOWS KITS\10\INCLUDE\10.0.10240.0\UCRT\CORECRT_WSTDLIB.H
C:\PROGRAM FILES (X86)\MICROSOFT VISUAL STUDIO 14.0\VC\INCLUDE\CSTDIO
C:\PROGRAM FILES (X86)\WINDOWS KITS\10\INCLUDE\10.0.10240.0\UCRT\STDIO.H
C:\PROGRAM FILES (X86)\WINDOWS KITS\10\INCLUDE\10.0.10240.0\UCRT\CORECRT_WSTDIO.H
C:\PROGRAM FILES (X86)\WINDOWS KITS\10\INCLUDE\10.0.10240.0\UCRT\CORECRT_STDIO_CONFIG.H
C:\PROGRAM FILES (X86)\MICROSOFT VISUAL STUDIO 14.0\VC\INCLUDE\STREAMBUF
C:\PROGRAM FILES (X86)\MICROSOFT VISUAL STUDIO 14.0\VC\INCLUDE\XIOSBASE
C:\PROGRAM FILES (X86)\MICROSOFT VISUAL STUDIO 14.0\VC\INCLUDE\XLOCALE
C:\PROGRAM FILES (X86)\MICROSOFT VISUAL STUDIO 14.0\VC\INCLUDE\CSTRING
C:\PROGRAM FILES (X86)\WINDOWS KITS\10\INCLUDE\10.0.10240.0\UCRT\STRING.H
C:\PROGRAM FILES (X86)\WINDOWS KITS\10\INCLUDE\10.0.10240.0\UCRT\CORECRT_MEMORY.H
C:\PROGRAM FILES (X86)\WINDOWS KITS\10\INCLUDE\10.0.10240.0\UCRT\CORECRT_MEMCPY_S.H
C:\PROGRAM FILES (X86)\WINDOWS KITS\10\INCLUDE\10.0.10240.0\UCRT\ERRNO.H
C:\PROGRAM FILES (X86)\MICROSOFT VISUAL STUDIO 14.0\VC\INCLUDE\VCRUNTIME_STRING.H
C:\PROGRAM FILES (X86)\WINDOWS KITS\10\INCLUDE\10.0.10240.0\UCRT\CORECRT_WSTRING.H
C:\PROGRAM FILES (X86)\MICROSOFT VISUAL STUDIO 14.0\VC\INCLUDE\STDEXCEPT
C:\PROGRAM FILES (X86)\MICROSOFT VISUAL STUDIO 14.0\VC\INCLUDE\EXCEPTION
C:\PROGRAM FILES (X86)\MICROSOFT VISUAL STUDIO 14.0\VC\INCLUDE\TYPE_TRAITS
C:\PROGRAM FILES (X86)\MICROSOFT VISUAL STUDIO 14.0\VC\INCLUDE\XSTDDEF
C:\PROGRAM FILES (X86)\MICROSOFT VISUAL STUDIO 14.0\VC\INCLUDE\CSTDDEF
C:\PROGRAM FILES (X86)\MICROSOFT VISUAL STUDIO 14.0\VC\INCLUDE\INITIALIZER_LIST
C:\PROGRAM FILES (X86)\WINDOWS KITS\10\INCLUDE\10.0.10240.0\UCRT\MALLOC.H
C:\PROGRAM FILES (X86)\MICROSOFT VISUAL STUDIO 14.0\VC\INCLUDE\VCRUNTIME_EXCEPTION.H
C:\PROGRAM FILES (X86)\MICROSOFT VISUAL STUDIO 14.0\VC\INCLUDE\EH.H
C:\PROGRAM FILES (X86)\WINDOWS KITS\10\INCLUDE\10.0.10240.0\UCRT\CORECRT_TERMINATE.H
C:\PROGRAM FILES (X86)\MICROSOFT VISUAL STUDIO 14.0\VC\INCLUDE\XSTRING
C:\PROGRAM FILES (X86)\MICROSOFT VISUAL STUDIO 14.0\VC\INCLUDE\XMEMORY0
C:\PROGRAM FILES (X86)\MICROSOFT VISUAL STUDIO 14.0\VC\INCLUDE\CSTDINT
C:\PROGRAM FILES (X86)\MICROSOFT VISUAL STUDIO 14.0\VC\INCLUDE\STDINT.H
C:\PROGRAM FILES (X86)\MICROSOFT VISUAL STUDIO 14.0\VC\INCLUDE\LIMITS
C:\PROGRAM FILES (X86)\MICROSOFT VISUAL STUDIO 14.0\VC\INCLUDE\YMATH.H
C:\PROGRAM FILES (X86)\MICROSOFT VISUAL STUDIO 14.0\VC\INCLUDE\CFLOAT
C:\PROGRAM FILES (X86)\WINDOWS KITS\10\INCLUDE\10.0.10240.0\UCRT\FLOAT.H
C:\PROGRAM FILES (X86)\MICROSOFT VISUAL STUDIO 14.0\VC\INCLUDE\CWCHAR
C:\PROGRAM FILES (X86)\WINDOWS KITS\10\INCLUDE\10.0.10240.0\UCRT\WCHAR.H
C:\PROGRAM FILES (X86)\WINDOWS KITS\10\INCLUDE\10.0.10240.0\UCRT\CORECRT_WCONIO.H
C:\PROGRAM FILES (X86)\WINDOWS KITS\10\INCLUDE\10.0.10240.0\UCRT\CORECRT_WCTYPE.H
C:\PROGRAM FILES (X86)\WINDOWS KITS\10\INCLUDE\10.0.10240.0\UCRT\CORECRT_WDIRECT.H
C:\PROGRAM FILES (X86)\WINDOWS KITS\10\INCLUDE\10.0.10240.0\UCRT\CORECRT_WIO.H
C:\PROGRAM FILES (X86)\WINDOWS KITS\10\INCLUDE\10.0.10240.0\UCRT\CORECRT_SHARE.H
C:\PROGRAM FILES (X86)\WINDOWS KITS\10\INCLUDE\10.0.10240.0\UCRT\CORECRT_WPROCESS.H
C:\PROGRAM FILES (X86)\WINDOWS KITS\10\INCLUDE\10.0.10240.0\UCRT\CORECRT_WTIME.H
C:\PROGRAM FILES (X86)\WINDOWS KITS\10\INCLUDE\10.0.10240.0\UCRT\SYS\STAT.H
C:\PROGRAM FILES (X86)\WINDOWS KITS\10\INCLUDE\10.0.10240.0\UCRT\SYS\TYPES.H
C:\PROGRAM FILES (X86)\MICROSOFT VISUAL STUDIO 14.0\VC\INCLUDE\NEW
C:\PROGRAM FILES (X86)\MICROSOFT VISUAL STUDIO 14.0\VC\INCLUDE\VCRUNTIME_NEW.H
C:\PROGRAM FILES (X86)\MICROSOFT VISUAL STUDIO 14.0\VC\INCLUDE\XUTILITY
C:\PROGRAM FILES (X86)\MICROSOFT VISUAL STUDIO 14.0\VC\INCLUDE\UTILITY
C:\PROGRAM FILES (X86)\MICROSOFT VISUAL STUDIO 14.0\VC\INCLUDE\IOSFWD
C:\PROGRAM FILES (X86)\WINDOWS KITS\10\INCLUDE\10.0.10240.0\UCRT\CRTDBG.H
C:\PROGRAM FILES (X86)\MICROSOFT VISUAL STUDIO 14.0\VC\INCLUDE\VCRUNTIME_NEW_DEBUG.H
C:\PROGRAM FILES (X86)\MICROSOFT VISUAL STUDIO 14.0\VC\INCLUDE\XATOMIC0.H
C:\PROGRAM FILES (X86)\MICROSOFT VISUAL STUDIO 14.0\VC\INCLUDE\INTRIN.H
C:\PROGRAM FILES (X86)\MICROSOFT VISUAL STUDIO 14.0\VC\INCLUDE\SETJMP.H
C:\PROGRAM FILES (X86)\MICROSOFT VISUAL STUDIO 14.0\VC\INCLUDE\IMMINTRIN.H
C:\PROGRAM FILES (X86)\MICROSOFT VISUAL STUDIO 14.0\VC\INCLUDE\WMMINTRIN.H
C:\PROGRAM FILES (X86)\MICROSOFT VISUAL STUDIO 14.0\VC\INCLUDE\NMMINTRIN.H
C:\PROGRAM FILES (X86)\MICROSOFT VISUAL STUDIO 14.0\VC\INCLUDE\SMMINTRIN.H
C:\PROGRAM FILES (X86)\MICROSOFT VISUAL STUDIO 14.0\VC\INCLUDE\TMMINTRIN.H
C:\PROGRAM FILES (X86)\MICROSOFT VISUAL STUDIO 14.0\VC\INCLUDE\PMMINTRIN.H
C:\PROGRAM FILES (X86)\MICROSOFT VISUAL STUDIO 14.0\VC\INCLUDE\EMMINTRIN.H
C:\PROGRAM FILES (X86)\MICROSOFT VISUAL STUDIO 14.0\VC\INCLUDE\XMMINTRIN.H
C:\PROGRAM FILES (X86)\MICROSOFT VISUAL STUDIO 14.0\VC\INCLUDE\MMINTRIN.H
C:\PROGRAM FILES (X86)\MICROSOFT VISUAL STUDIO 14.0\VC\INCLUDE\AMMINTRIN.H
C:\PROGRAM FILES (X86)\MICROSOFT VISUAL STUDIO 14.0\VC\INCLUDE\MM3DNOW.H
C:\PROGRAM FILES (X86)\MICROSOFT VISUAL STUDIO 14.0\VC\INCLUDE\TYPEINFO
C:\PROGRAM FILES (X86)\MICROSOFT VISUAL STUDIO 14.0\VC\INCLUDE\VCRUNTIME_TYPEINFO.H
C:\PROGRAM FILES (X86)\MICROSOFT VISUAL STUDIO 14.0\VC\INCLUDE\XLOCINFO
C:\PROGRAM FILES (X86)\MICROSOFT VISUAL STUDIO 14.0\VC\INCLUDE\XLOCINFO.H
C:\PROGRAM FILES (X86)\WINDOWS KITS\10\INCLUDE\10.0.10240.0\UCRT\CTYPE.H
C:\PROGRAM FILES (X86)\WINDOWS KITS\10\INCLUDE\10.0.10240.0\UCRT\LOCALE.H
C:\PROGRAM FILES (X86)\MICROSOFT VISUAL STUDIO 14.0\VC\INCLUDE\XFACET
C:\PROGRAM FILES (X86)\MICROSOFT VISUAL STUDIO 14.0\VC\INCLUDE\SYSTEM_ERROR
C:\PROGRAM FILES (X86)\MICROSOFT VISUAL STUDIO 14.0\VC\INCLUDE\CERRNO
C:\PROGRAM FILES (X86)\WINDOWS KITS\10\INCLUDE\10.0.10240.0\UCRT\SHARE.H
C:\PROGRAM FILES (X86)\MICROSOFT VISUAL STUDIO 14.0\VC\INCLUDE\FSTREAM
C:\USERS\STACKNIT\DROPBOX\EVENTGLYPH\LIBRARIES\GLM\GLM.HPP
C:\USERS\STACKNIT\DROPBOX\EVENTGLYPH\LIBRARIES\GLM\DETAIL\_FIXES.HPP
C:\PROGRAM FILES (X86)\MICROSOFT VISUAL STUDIO 14.0\VC\INCLUDE\CASSERT
C:\PROGRAM FILES (X86)\WINDOWS KITS\10\INCLUDE\10.0.10240.0\UCRT\ASSERT.H
C:\USERS\STACKNIT\DROPBOX\EVENTGLYPH\LIBRARIES\GLM\FWD.HPP
C:\USERS\STACKNIT\DROPBOX\EVENTGLYPH\LIBRARIES\GLM\DETAIL\TYPE_INT.HPP
C:\USERS\STACKNIT\DROPBOX\EVENTGLYPH\LIBRARIES\GLM\DETAIL\SETUP.HPP
C:\USERS\STACKNIT\DROPBOX\EVENTGLYPH\LIBRARIES\GLM\SIMD\PLATFORM.H
C:\USERS\STACKNIT\DROPBOX\EVENTGLYPH\LIBRARIES\GLM\DETAIL\TYPE_FLOAT.HPP
C:\USERS\STACKNIT\DROPBOX\EVENTGLYPH\LIBRARIES\GLM\DETAIL\TYPE_VEC.HPP
C:\USERS\STACKNIT\DROPBOX\EVENTGLYPH\LIBRARIES\GLM\DETAIL\PRECISION.HPP
C:\USERS\STACKNIT\DROPBOX\EVENTGLYPH\LIBRARIES\GLM\DETAIL\TYPE_MAT.HPP
C:\USERS\STACKNIT\DROPBOX\EVENTGLYPH\LIBRARIES\GLM\VEC2.HPP
C:\USERS\STACKNIT\DROPBOX\EVENTGLYPH\LIBRARIES\GLM\DETAIL\TYPE_VEC2.HPP
C:\USERS\STACKNIT\DROPBOX\EVENTGLYPH\LIBRARIES\GLM\DETAIL\TYPE_VEC2.INL
C:\USERS\STACKNIT\DROPBOX\EVENTGLYPH\LIBRARIES\GLM\VEC3.HPP
C:\USERS\STACKNIT\DROPBOX\EVENTGLYPH\LIBRARIES\GLM\DETAIL\TYPE_VEC3.HPP
C:\USERS\STACKNIT\DROPBOX\EVENTGLYPH\LIBRARIES\GLM\DETAIL\TYPE_VEC3.INL
C:\USERS\STACKNIT\DROPBOX\EVENTGLYPH\LIBRARIES\GLM\VEC4.HPP
C:\USERS\STACKNIT\DROPBOX\EVENTGLYPH\LIBRARIES\GLM\DETAIL\TYPE_VEC4.HPP
C:\USERS\STACKNIT\DROPBOX\EVENTGLYPH\LIBRARIES\GLM\DETAIL\TYPE_VEC4.INL
C:\USERS\STACKNIT\DROPBOX\EVENTGLYPH\LIBRARIES\GLM\DETAIL\TYPE_VEC4_SIMD.INL
C:\USERS\STACKNIT\DROPBOX\EVENTGLYPH\LIBRARIES\GLM\MAT2X2.HPP
C:\USERS\STACKNIT\DROPBOX\EVENTGLYPH\LIBRARIES\GLM\DETAIL\TYPE_MAT2X2.HPP
C:\USERS\STACKNIT\DROPBOX\EVENTGLYPH\LIBRARIES\GLM\DETAIL\TYPE_MAT2X2.INL
C:\USERS\STACKNIT\DROPBOX\EVENTGLYPH\LIBRARIES\GLM\DETAIL\FUNC_MATRIX.HPP
C:\USERS\STACKNIT\DROPBOX\EVENTGLYPH\LIBRARIES\GLM\MAT2X3.HPP
C:\USERS\STACKNIT\DROPBOX\EVENTGLYPH\LIBRARIES\GLM\DETAIL\TYPE_MAT2X3.HPP
C:\USERS\STACKNIT\DROPBOX\EVENTGLYPH\LIBRARIES\GLM\DETAIL\TYPE_MAT2X3.INL
C:\USERS\STACKNIT\DROPBOX\EVENTGLYPH\LIBRARIES\GLM\MAT2X4.HPP
C:\USERS\STACKNIT\DROPBOX\EVENTGLYPH\LIBRARIES\GLM\DETAIL\TYPE_MAT2X4.HPP
C:\USERS\STACKNIT\DROPBOX\EVENTGLYPH\LIBRARIES\GLM\DETAIL\TYPE_MAT2X4.INL
C:\USERS\STACKNIT\DROPBOX\EVENTGLYPH\LIBRARIES\GLM\MAT3X2.HPP
C:\USERS\STACKNIT\DROPBOX\EVENTGLYPH\LIBRARIES\GLM\DETAIL\TYPE_MAT3X2.HPP
C:\USERS\STACKNIT\DROPBOX\EVENTGLYPH\LIBRARIES\GLM\DETAIL\TYPE_MAT3X2.INL
C:\USERS\STACKNIT\DROPBOX\EVENTGLYPH\LIBRARIES\GLM\MAT3X3.HPP
C:\USERS\STACKNIT\DROPBOX\EVENTGLYPH\LIBRARIES\GLM\DETAIL\TYPE_MAT3X3.HPP
C:\USERS\STACKNIT\DROPBOX\EVENTGLYPH\LIBRARIES\GLM\DETAIL\TYPE_MAT3X3.INL
C:\USERS\STACKNIT\DROPBOX\EVENTGLYPH\LIBRARIES\GLM\MAT3X4.HPP
C:\USERS\STACKNIT\DROPBOX\EVENTGLYPH\LIBRARIES\GLM\DETAIL\TYPE_MAT3X4.HPP
C:\USERS\STACKNIT\DROPBOX\EVENTGLYPH\LIBRARIES\GLM\DETAIL\TYPE_MAT3X4.INL
C:\USERS\STACKNIT\DROPBOX\EVENTGLYPH\LIBRARIES\GLM\MAT4X2.HPP
C:\USERS\STACKNIT\DROPBOX\EVENTGLYPH\LIBRARIES\GLM\DETAIL\TYPE_MAT4X2.HPP
C:\USERS\STACKNIT\DROPBOX\EVENTGLYPH\LIBRARIES\GLM\DETAIL\TYPE_MAT4X2.INL
C:\USERS\STACKNIT\DROPBOX\EVENTGLYPH\LIBRARIES\GLM\MAT4X3.HPP
C:\USERS\STACKNIT\DROPBOX\EVENTGLYPH\LIBRARIES\GLM\DETAIL\TYPE_MAT4X3.HPP
C:\USERS\STACKNIT\DROPBOX\EVENTGLYPH\LIBRARIES\GLM\DETAIL\TYPE_MAT4X3.INL
C:\USERS\STACKNIT\DROPBOX\EVENTGLYPH\LIBRARIES\GLM\MAT4X4.HPP
C:\USERS\STACKNIT\DROPBOX\EVENTGLYPH\LIBRARIES\GLM\DETAIL\TYPE_MAT4X4.HPP
C:\USERS\STACKNIT\DROPBOX\EVENTGLYPH\LIBRARIES\GLM\DETAIL\TYPE_MAT4X4.INL
C:\USERS\STACKNIT\DROPBOX\EVENTGLYPH\LIBRARIES\GLM\DETAIL\TYPE_MAT4X4_SIMD.INL
C:\USERS\STACKNIT\DROPBOX\EVENTGLYPH\LIBRARIES\GLM\DETAIL\FUNC_MATRIX.INL
C:\USERS\STACKNIT\DROPBOX\EVENTGLYPH\LIBRARIES\GLM\GEOMETRIC.HPP
C:\USERS\STACKNIT\DROPBOX\EVENTGLYPH\LIBRARIES\GLM\DETAIL\FUNC_GEOMETRIC.HPP
C:\USERS\STACKNIT\DROPBOX\EVENTGLYPH\LIBRARIES\GLM\DETAIL\FUNC_GEOMETRIC.INL
C:\USERS\STACKNIT\DROPBOX\EVENTGLYPH\LIBRARIES\GLM\DETAIL\FUNC_EXPONENTIAL.HPP
C:\USERS\STACKNIT\DROPBOX\EVENTGLYPH\LIBRARIES\GLM\DETAIL\TYPE_VEC1.HPP
C:\USERS\STACKNIT\DROPBOX\EVENTGLYPH\LIBRARIES\GLM\DETAIL\TYPE_VEC1.INL
C:\USERS\STACKNIT\DROPBOX\EVENTGLYPH\LIBRARIES\GLM\DETAIL\FUNC_EXPONENTIAL.INL
C:\USERS\STACKNIT\DROPBOX\EVENTGLYPH\LIBRARIES\GLM\DETAIL\FUNC_VECTOR_RELATIONAL.HPP
C:\USERS\STACKNIT\DROPBOX\EVENTGLYPH\LIBRARIES\GLM\DETAIL\FUNC_VECTOR_RELATIONAL.INL
C:\USERS\STACKNIT\DROPBOX\EVENTGLYPH\LIBRARIES\GLM\DETAIL\FUNC_VECTOR_RELATIONAL_SIMD.INL
C:\USERS\STACKNIT\DROPBOX\EVENTGLYPH\LIBRARIES\GLM\DETAIL\_VECTORIZE.HPP
C:\USERS\STACKNIT\DROPBOX\EVENTGLYPH\LIBRARIES\GLM\DETAIL\FUNC_EXPONENTIAL_SIMD.INL
C:\USERS\STACKNIT\DROPBOX\EVENTGLYPH\LIBRARIES\GLM\SIMD\EXPONENTIAL.H
C:\USERS\STACKNIT\DROPBOX\EVENTGLYPH\LIBRARIES\GLM\DETAIL\FUNC_COMMON.HPP
C:\USERS\STACKNIT\DROPBOX\EVENTGLYPH\LIBRARIES\GLM\DETAIL\FUNC_COMMON.INL
C:\USERS\STACKNIT\DROPBOX\EVENTGLYPH\LIBRARIES\GLM\DETAIL\FUNC_COMMON_SIMD.INL
C:\USERS\STACKNIT\DROPBOX\EVENTGLYPH\LIBRARIES\GLM\SIMD\COMMON.H
C:\USERS\STACKNIT\DROPBOX\EVENTGLYPH\LIBRARIES\GLM\DETAIL\FUNC_GEOMETRIC_SIMD.INL
C:\USERS\STACKNIT\DROPBOX\EVENTGLYPH\LIBRARIES\GLM\SIMD\GEOMETRIC.H
C:\USERS\STACKNIT\DROPBOX\EVENTGLYPH\LIBRARIES\GLM\DETAIL\FUNC_MATRIX_SIMD.INL
C:\USERS\STACKNIT\DROPBOX\EVENTGLYPH\LIBRARIES\GLM\SIMD\MATRIX.H
C:\USERS\STACKNIT\DROPBOX\EVENTGLYPH\LIBRARIES\GLM\TRIGONOMETRIC.HPP
C:\USERS\STACKNIT\DROPBOX\EVENTGLYPH\LIBRARIES\GLM\DETAIL\FUNC_TRIGONOMETRIC.HPP
C:\USERS\STACKNIT\DROPBOX\EVENTGLYPH\LIBRARIES\GLM\DETAIL\FUNC_TRIGONOMETRIC.INL
C:\USERS\STACKNIT\DROPBOX\EVENTGLYPH\LIBRARIES\GLM\DETAIL\FUNC_TRIGONOMETRIC_SIMD.INL
C:\USERS\STACKNIT\DROPBOX\EVENTGLYPH\LIBRARIES\GLM\EXPONENTIAL.HPP
C:\USERS\STACKNIT\DROPBOX\EVENTGLYPH\LIBRARIES\GLM\COMMON.HPP
C:\USERS\STACKNIT\DROPBOX\EVENTGLYPH\LIBRARIES\GLM\PACKING.HPP
C:\USERS\STACKNIT\DROPBOX\EVENTGLYPH\LIBRARIES\GLM\DETAIL\FUNC_PACKING.HPP
C:\USERS\STACKNIT\DROPBOX\EVENTGLYPH\LIBRARIES\GLM\DETAIL\FUNC_PACKING.INL
C:\USERS\STACKNIT\DROPBOX\EVENTGLYPH\LIBRARIES\GLM\DETAIL\TYPE_HALF.HPP
C:\USERS\STACKNIT\DROPBOX\EVENTGLYPH\LIBRARIES\GLM\DETAIL\TYPE_HALF.INL
C:\USERS\STACKNIT\DROPBOX\EVENTGLYPH\LIBRARIES\GLM\DETAIL\FUNC_PACKING_SIMD.INL
C:\USERS\STACKNIT\DROPBOX\EVENTGLYPH\LIBRARIES\GLM\MATRIX.HPP
C:\USERS\STACKNIT\DROPBOX\EVENTGLYPH\LIBRARIES\GLM\VECTOR_RELATIONAL.HPP
C:\USERS\STACKNIT\DROPBOX\EVENTGLYPH\LIBRARIES\GLM\INTEGER.HPP
C:\USERS\STACKNIT\DROPBOX\EVENTGLYPH\LIBRARIES\GLM\DETAIL\FUNC_INTEGER.HPP
C:\USERS\STACKNIT\DROPBOX\EVENTGLYPH\LIBRARIES\GLM\DETAIL\FUNC_INTEGER.INL
C:\USERS\STACKNIT\DROPBOX\EVENTGLYPH\LIBRARIES\GLM\DETAIL\FUNC_INTEGER_SIMD.INL
C:\USERS\STACKNIT\DROPBOX\EVENTGLYPH\LIBRARIES\GLM\SIMD\INTEGER.H
C:\USERS\STACKNIT\DROPBOX\EVENTGLYPH\PACKAGES\NUPENGL.CORE.0.1.0.1\BUILD\NATIVE\INCLUDE\GL\GLEW.H
C:\PROGRAM FILES (X86)\WINDOWS KITS\8.1\INCLUDE\UM\GL\GLU.H
C:\PROGRAM FILES (X86)\WINDOWS KITS\8.1\INCLUDE\SHARED\WINAPIFAMILY.H
C:\PROGRAM FILES (X86)\WINDOWS KITS\8.1\INCLUDE\UM\GL\GL.H
C:\USERS\STACKNIT\DROPBOX\EVENTGLYPH\PACKAGES\NUPENGL.CORE.0.1.0.1\BUILD\NATIVE\INCLUDE\GLFW\GLFW3.H
C:\USERS\STACKNIT\DROPBOX\EVENTGLYPH\EVENTGLYPH\SHADER_TOOLKIT.HPP
C:\PROGRAM FILES (X86)\MICROSOFT VISUAL STUDIO 14.0\VC\INCLUDE\IOSTREAM
C:\WINDOWS\GLOBALIZATION\SORTING\SORTDEFAULT.NLS
C:\PROGRAM FILES (X86)\MICROSOFT VISUAL STUDIO 14.0\VC\BIN\1031\CLUI.DLL
C:\PROGRAM FILES (X86)\MICROSOFT VISUAL STUDIO 14.0\VC\BIN\MSPDBSRV.EXE
C:\WINDOWS\SYSTEM32\TZRES.DLL
C:\USERS\STACKNIT\DROPBOX\EVENTGLYPH\LIBRARIES\GLM\GTX\ROTATE_VECTOR.HPP
C:\USERS\STACKNIT\DROPBOX\EVENTGLYPH\LIBRARIES\GLM\GTX\TRANSFORM.HPP
C:\USERS\STACKNIT\DROPBOX\EVENTGLYPH\LIBRARIES\GLM\GTC\MATRIX_TRANSFORM.HPP
C:\USERS\STACKNIT\DROPBOX\EVENTGLYPH\LIBRARIES\GLM\GTC\CONSTANTS.HPP
C:\USERS\STACKNIT\DROPBOX\EVENTGLYPH\LIBRARIES\GLM\GTC\CONSTANTS.INL
C:\USERS\STACKNIT\DROPBOX\EVENTGLYPH\LIBRARIES\GLM\GTC\MATRIX_TRANSFORM.INL
C:\USERS\STACKNIT\DROPBOX\EVENTGLYPH\LIBRARIES\GLM\GTX\TRANSFORM.INL
C:\USERS\STACKNIT\DROPBOX\EVENTGLYPH\LIBRARIES\GLM\GTX\ROTATE_VECTOR.INL
^C:\USERS\STACKNIT\DROPBOX\EVENTGLYPH\EVENTGLYPH\EVENT_PROCESSOR.CPP
C:\USERS\STACKNIT\DROPBOX\EVENTGLYPH\EVENTGLYPH\EVENT_PROCESSOR.HPP
C:\USERS\STACKNIT\DROPBOX\EVENTGLYPH\EVENTGLYPH\MMSE_FILE.HPP
C:\PROGRAM FILES (X86)\MICROSOFT VISUAL STUDIO 14.0\VC\INCLUDE\STRING
C:\PROGRAM FILES (X86)\MICROSOFT VISUAL STUDIO 14.0\VC\INCLUDE\ISTREAM
C:\PROGRAM FILES (X86)\MICROSOFT VISUAL STUDIO 14.0\VC\INCLUDE\OSTREAM
C:\PROGRAM FILES (X86)\MICROSOFT VISUAL STUDIO 14.0\VC\INCLUDE\IOS
C:\PROGRAM FILES (X86)\MICROSOFT VISUAL STUDIO 14.0\VC\INCLUDE\XLOCNUM
C:\PROGRAM FILES (X86)\MICROSOFT VISUAL STUDIO 14.0\VC\INCLUDE\CLIMITS
C:\PROGRAM FILES (X86)\MICROSOFT VISUAL STUDIO 14.0\VC\INCLUDE\YVALS.H
C:\PROGRAM FILES (X86)\MICROSOFT VISUAL STUDIO 14.0\VC\INCLUDE\XKEYCHECK.H
C:\PROGRAM FILES (X86)\MICROSOFT VISUAL STUDIO 14.0\VC\INCLUDE\CRTDEFS.H
C:\PROGRAM FILES (X86)\MICROSOFT VISUAL STUDIO 14.0\VC\INCLUDE\VCRUNTIME.H
C:\PROGRAM FILES (X86)\MICROSOFT VISUAL STUDIO 14.0\VC\INCLUDE\SAL.H
C:\PROGRAM FILES (X86)\MICROSOFT VISUAL STUDIO 14.0\VC\INCLUDE\CONCURRENCYSAL.H
C:\PROGRAM FILES (X86)\MICROSOFT VISUAL STUDIO 14.0\VC\INCLUDE\VADEFS.H
C:\PROGRAM FILES (X86)\WINDOWS KITS\10\INCLUDE\10.0.10240.0\UCRT\CORECRT.H
C:\PROGRAM FILES (X86)\MICROSOFT VISUAL STUDIO 14.0\VC\INCLUDE\USE_ANSI.H
C:\PROGRAM FILES (X86)\MICROSOFT VISUAL STUDIO 14.0\VC\INCLUDE\LIMITS.H
C:\PROGRAM FILES (X86)\MICROSOFT VISUAL STUDIO 14.0\VC\INCLUDE\CMATH
C:\PROGRAM FILES (X86)\WINDOWS KITS\10\INCLUDE\10.0.10240.0\UCRT\MATH.H
C:\PROGRAM FILES (X86)\MICROSOFT VISUAL STUDIO 14.0\VC\INCLUDE\XTGMATH.H
C:\PROGRAM FILES (X86)\MICROSOFT VISUAL STUDIO 14.0\VC\INCLUDE\XTR1COMMON
C:\PROGRAM FILES (X86)\MICROSOFT VISUAL STUDIO 14.0\VC\INCLUDE\CSTDLIB
C:\PROGRAM FILES (X86)\WINDOWS KITS\10\INCLUDE\10.0.10240.0\UCRT\STDLIB.H
C:\PROGRAM FILES (X86)\WINDOWS KITS\10\INCLUDE\10.0.10240.0\UCRT\CORECRT_MALLOC.H
C:\PROGRAM FILES (X86)\WINDOWS KITS\10\INCLUDE\10.0.10240.0\UCRT\CORECRT_SEARCH.H
C:\PROGRAM FILES (X86)\WINDOWS KITS\10\INCLUDE\10.0.10240.0\UCRT\STDDEF.H
C:\PROGRAM FILES (X86)\WINDOWS KITS\10\INCLUDE\10.0.10240.0\UCRT\CORECRT_WSTDLIB.H
C:\PROGRAM FILES (X86)\MICROSOFT VISUAL STUDIO 14.0\VC\INCLUDE\CSTDIO
C:\PROGRAM FILES (X86)\WINDOWS KITS\10\INCLUDE\10.0.10240.0\UCRT\STDIO.H
C:\PROGRAM FILES (X86)\WINDOWS KITS\10\INCLUDE\10.0.10240.0\UCRT\CORECRT_WSTDIO.H
C:\PROGRAM FILES (X86)\WINDOWS KITS\10\INCLUDE\10.0.10240.0\UCRT\CORECRT_STDIO_CONFIG.H
C:\PROGRAM FILES (X86)\MICROSOFT VISUAL STUDIO 14.0\VC\INCLUDE\STREAMBUF
C:\PROGRAM FILES (X86)\MICROSOFT VISUAL STUDIO 14.0\VC\INCLUDE\XIOSBASE
C:\PROGRAM FILES (X86)\MICROSOFT VISUAL STUDIO 14.0\VC\INCLUDE\XLOCALE
C:\PROGRAM FILES (X86)\MICROSOFT VISUAL STUDIO 14.0\VC\INCLUDE\CSTRING
C:\PROGRAM FILES (X86)\WINDOWS KITS\10\INCLUDE\10.0.10240.0\UCRT\STRING.H
C:\PROGRAM FILES (X86)\WINDOWS KITS\10\INCLUDE\10.0.10240.0\UCRT\CORECRT_MEMORY.H
C:\PROGRAM FILES (X86)\WINDOWS KITS\10\INCLUDE\10.0.10240.0\UCRT\CORECRT_MEMCPY_S.H
C:\PROGRAM FILES (X86)\WINDOWS KITS\10\INCLUDE\10.0.10240.0\UCRT\ERRNO.H
C:\PROGRAM FILES (X86)\MICROSOFT VISUAL STUDIO 14.0\VC\INCLUDE\VCRUNTIME_STRING.H
C:\PROGRAM FILES (X86)\WINDOWS KITS\10\INCLUDE\10.0.10240.0\UCRT\CORECRT_WSTRING.H
C:\PROGRAM FILES (X86)\MICROSOFT VISUAL STUDIO 14.0\VC\INCLUDE\STDEXCEPT
C:\PROGRAM FILES (X86)\MICROSOFT VISUAL STUDIO 14.0\VC\INCLUDE\EXCEPTION
C:\PROGRAM FILES (X86)\MICROSOFT VISUAL STUDIO 14.0\VC\INCLUDE\TYPE_TRAITS
C:\PROGRAM FILES (X86)\MICROSOFT VISUAL STUDIO 14.0\VC\INCLUDE\XSTDDEF
C:\PROGRAM FILES (X86)\MICROSOFT VISUAL STUDIO 14.0\VC\INCLUDE\CSTDDEF
C:\PROGRAM FILES (X86)\MICROSOFT VISUAL STUDIO 14.0\VC\INCLUDE\INITIALIZER_LIST
C:\PROGRAM FILES (X86)\WINDOWS KITS\10\INCLUDE\10.0.10240.0\UCRT\MALLOC.H
C:\PROGRAM FILES (X86)\MICROSOFT VISUAL STUDIO 14.0\VC\INCLUDE\VCRUNTIME_EXCEPTION.H
C:\PROGRAM FILES (X86)\MICROSOFT VISUAL STUDIO 14.0\VC\INCLUDE\EH.H
C:\PROGRAM FILES (X86)\WINDOWS KITS\10\INCLUDE\10.0.10240.0\UCRT\CORECRT_TERMINATE.H
C:\PROGRAM FILES (X86)\MICROSOFT VISUAL STUDIO 14.0\VC\INCLUDE\XSTRING
C:\PROGRAM FILES (X86)\MICROSOFT VISUAL STUDIO 14.0\VC\INCLUDE\XMEMORY0
C:\PROGRAM FILES (X86)\MICROSOFT VISUAL STUDIO 14.0\VC\INCLUDE\CSTDINT
C:\PROGRAM FILES (X86)\MICROSOFT VISUAL STUDIO 14.0\VC\INCLUDE\STDINT.H
C:\PROGRAM FILES (X86)\MICROSOFT VISUAL STUDIO 14.0\VC\INCLUDE\LIMITS
C:\PROGRAM FILES (X86)\MICROSOFT VISUAL STUDIO 14.0\VC\INCLUDE\YMATH.H
C:\PROGRAM FILES (X86)\MICROSOFT VISUAL STUDIO 14.0\VC\INCLUDE\CFLOAT
C:\PROGRAM FILES (X86)\WINDOWS KITS\10\INCLUDE\10.0.10240.0\UCRT\FLOAT.H
C:\PROGRAM FILES (X86)\MICROSOFT VISUAL STUDIO 14.0\VC\INCLUDE\CWCHAR
C:\PROGRAM FILES (X86)\WINDOWS KITS\10\INCLUDE\10.0.10240.0\UCRT\WCHAR.H
C:\PROGRAM FILES (X86)\WINDOWS KITS\10\INCLUDE\10.0.10240.0\UCRT\CORECRT_WCONIO.H
C:\PROGRAM FILES (X86)\WINDOWS KITS\10\INCLUDE\10.0.10240.0\UCRT\CORECRT_WCTYPE.H
C:\PROGRAM FILES (X86)\WINDOWS KITS\10\INCLUDE\10.0.10240.0\UCRT\CORECRT_WDIRECT.H
C:\PROGRAM FILES (X86)\WINDOWS KITS\10\INCLUDE\10.0.10240.0\UCRT\CORECRT_WIO.H
C:\PROGRAM FILES (X86)\WINDOWS KITS\10\INCLUDE\10.0.10240.0\UCRT\CORECRT_SHARE.H
C:\PROGRAM FILES (X86)\WINDOWS KITS\10\INCLUDE\10.0.10240.0\UCRT\CORECRT_WPROCESS.H
C:\PROGRAM FILES (X86)\WINDOWS KITS\10\INCLUDE\10.0.10240.0\UCRT\CORECRT_WTIME.H
C:\PROGRAM FILES (X86)\WINDOWS KITS\10\INCLUDE\10.0.10240.0\UCRT\SYS\STAT.H
C:\PROGRAM FILES (X86)\WINDOWS KITS\10\INCLUDE\10.0.10240.0\UCRT\SYS\TYPES.H
C:\PROGRAM FILES (X86)\MICROSOFT VISUAL STUDIO 14.0\VC\INCLUDE\NEW
C:\PROGRAM FILES (X86)\MICROSOFT VISUAL STUDIO 14.0\VC\INCLUDE\VCRUNTIME_NEW.H
C:\PROGRAM FILES (X86)\MICROSOFT VISUAL STUDIO 14.0\VC\INCLUDE\XUTILITY
C:\PROGRAM FILES (X86)\MICROSOFT VISUAL STUDIO 14.0\VC\INCLUDE\UTILITY
C:\PROGRAM FILES (X86)\MICROSOFT VISUAL STUDIO 14.0\VC\INCLUDE\IOSFWD
C:\PROGRAM FILES (X86)\WINDOWS KITS\10\INCLUDE\10.0.10240.0\UCRT\CRTDBG.H
C:\PROGRAM FILES (X86)\MICROSOFT VISUAL STUDIO 14.0\VC\INCLUDE\VCRUNTIME_NEW_DEBUG.H
C:\PROGRAM FILES (X86)\MICROSOFT VISUAL STUDIO 14.0\VC\INCLUDE\XATOMIC0.H
C:\PROGRAM FILES (X86)\MICROSOFT VISUAL STUDIO 14.0\VC\INCLUDE\INTRIN.H
C:\PROGRAM FILES (X86)\MICROSOFT VISUAL STUDIO 14.0\VC\INCLUDE\SETJMP.H
C:\PROGRAM FILES (X86)\MICROSOFT VISUAL STUDIO 14.0\VC\INCLUDE\IMMINTRIN.H
C:\PROGRAM FILES (X86)\MICROSOFT VISUAL STUDIO 14.0\VC\INCLUDE\WMMINTRIN.H
C:\PROGRAM FILES (X86)\MICROSOFT VISUAL STUDIO 14.0\VC\INCLUDE\NMMINTRIN.H
C:\PROGRAM FILES (X86)\MICROSOFT VISUAL STUDIO 14.0\VC\INCLUDE\SMMINTRIN.H
C:\PROGRAM FILES (X86)\MICROSOFT VISUAL STUDIO 14.0\VC\INCLUDE\TMMINTRIN.H
C:\PROGRAM FILES (X86)\MICROSOFT VISUAL STUDIO 14.0\VC\INCLUDE\PMMINTRIN.H
C:\PROGRAM FILES (X86)\MICROSOFT VISUAL STUDIO 14.0\VC\INCLUDE\EMMINTRIN.H
C:\PROGRAM FILES (X86)\MICROSOFT VISUAL STUDIO 14.0\VC\INCLUDE\XMMINTRIN.H
C:\PROGRAM FILES (X86)\MICROSOFT VISUAL STUDIO 14.0\VC\INCLUDE\MMINTRIN.H
C:\PROGRAM FILES (X86)\MICROSOFT VISUAL STUDIO 14.0\VC\INCLUDE\AMMINTRIN.H
C:\PROGRAM FILES (X86)\MICROSOFT VISUAL STUDIO 14.0\VC\INCLUDE\MM3DNOW.H
C:\PROGRAM FILES (X86)\MICROSOFT VISUAL STUDIO 14.0\VC\INCLUDE\TYPEINFO
C:\PROGRAM FILES (X86)\MICROSOFT VISUAL STUDIO 14.0\VC\INCLUDE\VCRUNTIME_TYPEINFO.H
C:\PROGRAM FILES (X86)\MICROSOFT VISUAL STUDIO 14.0\VC\INCLUDE\XLOCINFO
C:\PROGRAM FILES (X86)\MICROSOFT VISUAL STUDIO 14.0\VC\INCLUDE\XLOCINFO.H
C:\PROGRAM FILES (X86)\WINDOWS KITS\10\INCLUDE\10.0.10240.0\UCRT\CTYPE.H
C:\PROGRAM FILES (X86)\WINDOWS KITS\10\INCLUDE\10.0.10240.0\UCRT\LOCALE.H
C:\PROGRAM FILES (X86)\MICROSOFT VISUAL STUDIO 14.0\VC\INCLUDE\XFACET
C:\PROGRAM FILES (X86)\MICROSOFT VISUAL STUDIO 14.0\VC\INCLUDE\SYSTEM_ERROR
C:\PROGRAM FILES (X86)\MICROSOFT VISUAL STUDIO 14.0\VC\INCLUDE\CERRNO
C:\PROGRAM FILES (X86)\WINDOWS KITS\10\INCLUDE\10.0.10240.0\UCRT\SHARE.H
C:\PROGRAM FILES (X86)\MICROSOFT VISUAL STUDIO 14.0\VC\INCLUDE\FSTREAM
C:\USERS\STACKNIT\DROPBOX\EVENTGLYPH\LIBRARIES\GLM\GLM.HPP
C:\USERS\STACKNIT\DROPBOX\EVENTGLYPH\LIBRARIES\GLM\DETAIL\_FIXES.HPP
C:\PROGRAM FILES (X86)\MICROSOFT VISUAL STUDIO 14.0\VC\INCLUDE\CASSERT
C:\PROGRAM FILES (X86)\WINDOWS KITS\10\INCLUDE\10.0.10240.0\UCRT\ASSERT.H
C:\USERS\STACKNIT\DROPBOX\EVENTGLYPH\LIBRARIES\GLM\FWD.HPP
C:\USERS\STACKNIT\DROPBOX\EVENTGLYPH\LIBRARIES\GLM\DETAIL\TYPE_INT.HPP
C:\USERS\STACKNIT\DROPBOX\EVENTGLYPH\LIBRARIES\GLM\DETAIL\SETUP.HPP
C:\USERS\STACKNIT\DROPBOX\EVENTGLYPH\LIBRARIES\GLM\SIMD\PLATFORM.H
C:\USERS\STACKNIT\DROPBOX\EVENTGLYPH\LIBRARIES\GLM\DETAIL\TYPE_FLOAT.HPP
C:\USERS\STACKNIT\DROPBOX\EVENTGLYPH\LIBRARIES\GLM\DETAIL\TYPE_VEC.HPP
C:\USERS\STACKNIT\DROPBOX\EVENTGLYPH\LIBRARIES\GLM\DETAIL\PRECISION.HPP
C:\USERS\STACKNIT\DROPBOX\EVENTGLYPH\LIBRARIES\GLM\DETAIL\TYPE_MAT.HPP
C:\USERS\STACKNIT\DROPBOX\EVENTGLYPH\LIBRARIES\GLM\VEC2.HPP
C:\USERS\STACKNIT\DROPBOX\EVENTGLYPH\LIBRARIES\GLM\DETAIL\TYPE_VEC2.HPP
C:\USERS\STACKNIT\DROPBOX\EVENTGLYPH\LIBRARIES\GLM\DETAIL\TYPE_VEC2.INL
C:\USERS\STACKNIT\DROPBOX\EVENTGLYPH\LIBRARIES\GLM\VEC3.HPP
C:\USERS\STACKNIT\DROPBOX\EVENTGLYPH\LIBRARIES\GLM\DETAIL\TYPE_VEC3.HPP
C:\USERS\STACKNIT\DROPBOX\EVENTGLYPH\LIBRARIES\GLM\DETAIL\TYPE_VEC3.INL
C:\USERS\STACKNIT\DROPBOX\EVENTGLYPH\LIBRARIES\GLM\VEC4.HPP
C:\USERS\STACKNIT\DROPBOX\EVENTGLYPH\LIBRARIES\GLM\DETAIL\TYPE_VEC4.HPP
C:\USERS\STACKNIT\DROPBOX\EVENTGLYPH\LIBRARIES\GLM\DETAIL\TYPE_VEC4.INL
C:\USERS\STACKNIT\DROPBOX\EVENTGLYPH\LIBRARIES\GLM\DETAIL\TYPE_VEC4_SIMD.INL
C:\USERS\STACKNIT\DROPBOX\EVENTGLYPH\LIBRARIES\GLM\MAT2X2.HPP
C:\USERS\STACKNIT\DROPBOX\EVENTGLYPH\LIBRARIES\GLM\DETAIL\TYPE_MAT2X2.HPP
C:\USERS\STACKNIT\DROPBOX\EVENTGLYPH\LIBRARIES\GLM\DETAIL\TYPE_MAT2X2.INL
C:\USERS\STACKNIT\DROPBOX\EVENTGLYPH\LIBRARIES\GLM\DETAIL\FUNC_MATRIX.HPP
C:\USERS\STACKNIT\DROPBOX\EVENTGLYPH\LIBRARIES\GLM\MAT2X3.HPP
C:\USERS\STACKNIT\DROPBOX\EVENTGLYPH\LIBRARIES\GLM\DETAIL\TYPE_MAT2X3.HPP
C:\USERS\STACKNIT\DROPBOX\EVENTGLYPH\LIBRARIES\GLM\DETAIL\TYPE_MAT2X3.INL
C:\USERS\STACKNIT\DROPBOX\EVENTGLYPH\LIBRARIES\GLM\MAT2X4.HPP
C:\USERS\STACKNIT\DROPBOX\EVENTGLYPH\LIBRARIES\GLM\DETAIL\TYPE_MAT2X4.HPP
C:\USERS\STACKNIT\DROPBOX\EVENTGLYPH\LIBRARIES\GLM\DETAIL\TYPE_MAT2X4.INL
C:\USERS\STACKNIT\DROPBOX\EVENTGLYPH\LIBRARIES\GLM\MAT3X2.HPP
C:\USERS\STACKNIT\DROPBOX\EVENTGLYPH\LIBRARIES\GLM\DETAIL\TYPE_MAT3X2.HPP
C:\USERS\STACKNIT\DROPBOX\EVENTGLYPH\LIBRARIES\GLM\DETAIL\TYPE_MAT3X2.INL
C:\USERS\STACKNIT\DROPBOX\EVENTGLYPH\LIBRARIES\GLM\MAT3X3.HPP
C:\USERS\STACKNIT\DROPBOX\EVENTGLYPH\LIBRARIES\GLM\DETAIL\TYPE_MAT3X3.HPP
C:\USERS\STACKNIT\DROPBOX\EVENTGLYPH\LIBRARIES\GLM\DETAIL\TYPE_MAT3X3.INL
C:\USERS\STACKNIT\DROPBOX\EVENTGLYPH\LIBRARIES\GLM\MAT3X4.HPP
C:\USERS\STACKNIT\DROPBOX\EVENTGLYPH\LIBRARIES\GLM\DETAIL\TYPE_MAT3X4.HPP
C:\USERS\STACKNIT\DROPBOX\EVENTGLYPH\LIBRARIES\GLM\DETAIL\TYPE_MAT3X4.INL
C:\USERS\STACKNIT\DROPBOX\EVENTGLYPH\LIBRARIES\GLM\MAT4X2.HPP
C:\USERS\STACKNIT\DROPBOX\EVENTGLYPH\LIBRARIES\GLM\DETAIL\TYPE_MAT4X2.HPP
C:\USERS\STACKNIT\DROPBOX\EVENTGLYPH\LIBRARIES\GLM\DETAIL\TYPE_MAT4X2.INL
C:\USERS\STACKNIT\DROPBOX\EVENTGLYPH\LIBRARIES\GLM\MAT4X3.HPP
C:\USERS\STACKNIT\DROPBOX\EVENTGLYPH\LIBRARIES\GLM\DETAIL\TYPE_MAT4X3.HPP
C:\USERS\STACKNIT\DROPBOX\EVENTGLYPH\LIBRARIES\GLM\DETAIL\TYPE_MAT4X3.INL
C:\USERS\STACKNIT\DROPBOX\EVENTGLYPH\LIBRARIES\GLM\MAT4X4.HPP
C:\USERS\STACKNIT\DROPBOX\EVENTGLYPH\LIBRARIES\GLM\DETAIL\TYPE_MAT4X4.HPP
C:\USERS\STACKNIT\DROPBOX\EVENTGLYPH\LIBRARIES\GLM\DETAIL\TYPE_MAT4X4.INL
C:\USERS\STACKNIT\DROPBOX\EVENTGLYPH\LIBRARIES\GLM\DETAIL\TYPE_MAT4X4_SIMD.INL
C:\USERS\STACKNIT\DROPBOX\EVENTGLYPH\LIBRARIES\GLM\DETAIL\FUNC_MATRIX.INL
C:\USERS\STACKNIT\DROPBOX\EVENTGLYPH\LIBRARIES\GLM\GEOMETRIC.HPP
C:\USERS\STACKNIT\DROPBOX\EVENTGLYPH\LIBRARIES\GLM\DETAIL\FUNC_GEOMETRIC.HPP
C:\USERS\STACKNIT\DROPBOX\EVENTGLYPH\LIBRARIES\GLM\DETAIL\FUNC_GEOMETRIC.INL
C:\USERS\STACKNIT\DROPBOX\EVENTGLYPH\LIBRARIES\GLM\DETAIL\FUNC_EXPONENTIAL.HPP
C:\USERS\STACKNIT\DROPBOX\EVENTGLYPH\LIBRARIES\GLM\DETAIL\TYPE_VEC1.HPP
C:\USERS\STACKNIT\DROPBOX\EVENTGLYPH\LIBRARIES\GLM\DETAIL\TYPE_VEC1.INL
C:\USERS\STACKNIT\DROPBOX\EVENTGLYPH\LIBRARIES\GLM\DETAIL\FUNC_EXPONENTIAL.INL
C:\USERS\STACKNIT\DROPBOX\EVENTGLYPH\LIBRARIES\GLM\DETAIL\FUNC_VECTOR_RELATIONAL.HPP
C:\USERS\STACKNIT\DROPBOX\EVENTGLYPH\LIBRARIES\GLM\DETAIL\FUNC_VECTOR_RELATIONAL.INL
C:\USERS\STACKNIT\DROPBOX\EVENTGLYPH\LIBRARIES\GLM\DETAIL\FUNC_VECTOR_RELATIONAL_SIMD.INL
C:\USERS\STACKNIT\DROPBOX\EVENTGLYPH\LIBRARIES\GLM\DETAIL\_VECTORIZE.HPP
C:\USERS\STACKNIT\DROPBOX\EVENTGLYPH\LIBRARIES\GLM\DETAIL\FUNC_EXPONENTIAL_SIMD.INL
C:\USERS\STACKNIT\DROPBOX\EVENTGLYPH\LIBRARIES\GLM\SIMD\EXPONENTIAL.H
C:\USERS\STACKNIT\DROPBOX\EVENTGLYPH\LIBRARIES\GLM\DETAIL\FUNC_COMMON.HPP
C:\USERS\STACKNIT\DROPBOX\EVENTGLYPH\LIBRARIES\GLM\DETAIL\FUNC_COMMON.INL
C:\USERS\STACKNIT\DROPBOX\EVENTGLYPH\LIBRARIES\GLM\DETAIL\FUNC_COMMON_SIMD.INL
C:\USERS\STACKNIT\DROPBOX\EVENTGLYPH\LIBRARIES\GLM\SIMD\COMMON.H
C:\USERS\STACKNIT\DROPBOX\EVENTGLYPH\LIBRARIES\GLM\DETAIL\FUNC_GEOMETRIC_SIMD.INL
C:\USERS\STACKNIT\DROPBOX\EVENTGLYPH\LIBRARIES\GLM\SIMD\GEOMETRIC.H
C:\USERS\STACKNIT\DROPBOX\EVENTGLYPH\LIBRARIES\GLM\DETAIL\FUNC_MATRIX_SIMD.INL
C:\USERS\STACKNIT\DROPBOX\EVENTGLYPH\LIBRARIES\GLM\SIMD\MATRIX.H
C:\USERS\STACKNIT\DROPBOX\EVENTGLYPH\LIBRARIES\GLM\TRIGONOMETRIC.HPP
C:\USERS\STACKNIT\DROPBOX\EVENTGLYPH\LIBRARIES\GLM\DETAIL\FUNC_TRIGONOMETRIC.HPP
C:\USERS\STACKNIT\DROPBOX\EVENTGLYPH\LIBRARIES\GLM\DETAIL\FUNC_TRIGONOMETRIC.INL
C:\USERS\STACKNIT\DROPBOX\EVENTGLYPH\LIBRARIES\GLM\DETAIL\FUNC_TRIGONOMETRIC_SIMD.INL
C:\USERS\STACKNIT\DROPBOX\EVENTGLYPH\LIBRARIES\GLM\EXPONENTIAL.HPP
C:\USERS\STACKNIT\DROPBOX\EVENTGLYPH\LIBRARIES\GLM\COMMON.HPP
C:\USERS\STACKNIT\DROPBOX\EVENTGLYPH\LIBRARIES\GLM\PACKING.HPP
C:\USERS\STACKNIT\DROPBOX\EVENTGLYPH\LIBRARIES\GLM\DETAIL\FUNC_PACKING.HPP
C:\USERS\STACKNIT\DROPBOX\EVENTGLYPH\LIBRARIES\GLM\DETAIL\FUNC_PACKING.INL
C:\USERS\STACKNIT\DROPBOX\EVENTGLYPH\LIBRARIES\GLM\DETAIL\TYPE_HALF.HPP
C:\USERS\STACKNIT\DROPBOX\EVENTGLYPH\LIBRARIES\GLM\DETAIL\TYPE_HALF.INL
C:\USERS\STACKNIT\DROPBOX\EVENTGLYPH\LIBRARIES\GLM\DETAIL\FUNC_PACKING_SIMD.INL
C:\USERS\STACKNIT\DROPBOX\EVENTGLYPH\LIBRARIES\GLM\MATRIX.HPP
C:\USERS\STACKNIT\DROPBOX\EVENTGLYPH\LIBRARIES\GLM\VECTOR_RELATIONAL.HPP
C:\USERS\STACKNIT\DROPBOX\EVENTGLYPH\LIBRARIES\GLM\INTEGER.HPP
C:\USERS\STACKNIT\DROPBOX\EVENTGLYPH\LIBRARIES\GLM\DETAIL\FUNC_INTEGER.HPP
C:\USERS\STACKNIT\DROPBOX\EVENTGLYPH\LIBRARIES\GLM\DETAIL\FUNC_INTEGER.INL
C:\USERS\STACKNIT\DROPBOX\EVENTGLYPH\LIBRARIES\GLM\DETAIL\FUNC_INTEGER_SIMD.INL
C:\USERS\STACKNIT\DROPBOX\EVENTGLYPH\LIBRARIES\GLM\SIMD\INTEGER.H
C:\PROGRAM FILES (X86)\MICROSOFT VISUAL STUDIO 14.0\VC\INCLUDE\IOSTREAM
C:\WINDOWS\GLOBALIZATION\SORTING\SORTDEFAULT.NLS
C:\PROGRAM FILES (X86)\MICROSOFT VISUAL STUDIO 14.0\VC\BIN\1031\CLUI.DLL
C:\WINDOWS\SYSTEM32\TZRES.DLL
C:\USERS\STACKNIT\DROPBOX\EVENTGLYPH\LIBRARIES\GLM\GTC\MATRIX_TRANSFORM.HPP
C:\USERS\STACKNIT\DROPBOX\EVENTGLYPH\LIBRARIES\GLM\GTC\CONSTANTS.HPP
C:\USERS\STACKNIT\DROPBOX\EVENTGLYPH\LIBRARIES\GLM\GTC\CONSTANTS.INL
C:\USERS\STACKNIT\DROPBOX\EVENTGLYPH\LIBRARIES\GLM\GTC\MATRIX_TRANSFORM.INL
C:\PROGRAM FILES (X86)\MICROSOFT VISUAL STUDIO 14.0\VC\BIN\MSPDBSRV.EXE
^C:\USERS\STACKNIT\DROPBOX\EVENTGLYPH\EVENTGLYPH\SHADER_TOOLKIT.CPP
C:\USERS\STACKNIT\DROPBOX\EVENTGLYPH\EVENTGLYPH\SHADER_TOOLKIT.HPP
C:\PROGRAM FILES (X86)\MICROSOFT VISUAL STUDIO 14.0\VC\INCLUDE\STRING
C:\PROGRAM FILES (X86)\MICROSOFT VISUAL STUDIO 14.0\VC\INCLUDE\ISTREAM
C:\PROGRAM FILES (X86)\MICROSOFT VISUAL STUDIO 14.0\VC\INCLUDE\OSTREAM
C:\PROGRAM FILES (X86)\MICROSOFT VISUAL STUDIO 14.0\VC\INCLUDE\IOS
C:\PROGRAM FILES (X86)\MICROSOFT VISUAL STUDIO 14.0\VC\INCLUDE\XLOCNUM
C:\PROGRAM FILES (X86)\MICROSOFT VISUAL STUDIO 14.0\VC\INCLUDE\CLIMITS
C:\PROGRAM FILES (X86)\MICROSOFT VISUAL STUDIO 14.0\VC\INCLUDE\YVALS.H
C:\PROGRAM FILES (X86)\MICROSOFT VISUAL STUDIO 14.0\VC\INCLUDE\XKEYCHECK.H
C:\PROGRAM FILES (X86)\MICROSOFT VISUAL STUDIO 14.0\VC\INCLUDE\CRTDEFS.H
C:\PROGRAM FILES (X86)\MICROSOFT VISUAL STUDIO 14.0\VC\INCLUDE\VCRUNTIME.H
C:\PROGRAM FILES (X86)\MICROSOFT VISUAL STUDIO 14.0\VC\INCLUDE\SAL.H
C:\PROGRAM FILES (X86)\MICROSOFT VISUAL STUDIO 14.0\VC\INCLUDE\CONCURRENCYSAL.H
C:\PROGRAM FILES (X86)\MICROSOFT VISUAL STUDIO 14.0\VC\INCLUDE\VADEFS.H
C:\PROGRAM FILES (X86)\WINDOWS KITS\10\INCLUDE\10.0.10240.0\UCRT\CORECRT.H
C:\PROGRAM FILES (X86)\MICROSOFT VISUAL STUDIO 14.0\VC\INCLUDE\USE_ANSI.H
C:\PROGRAM FILES (X86)\MICROSOFT VISUAL STUDIO 14.0\VC\INCLUDE\LIMITS.H
C:\PROGRAM FILES (X86)\MICROSOFT VISUAL STUDIO 14.0\VC\INCLUDE\CMATH
C:\PROGRAM FILES (X86)\WINDOWS KITS\10\INCLUDE\10.0.10240.0\UCRT\MATH.H
C:\PROGRAM FILES (X86)\MICROSOFT VISUAL STUDIO 14.0\VC\INCLUDE\XTGMATH.H
C:\PROGRAM FILES (X86)\MICROSOFT VISUAL STUDIO 14.0\VC\INCLUDE\XTR1COMMON
C:\PROGRAM FILES (X86)\MICROSOFT VISUAL STUDIO 14.0\VC\INCLUDE\CSTDLIB
C:\PROGRAM FILES (X86)\WINDOWS KITS\10\INCLUDE\10.0.10240.0\UCRT\STDLIB.H
C:\PROGRAM FILES (X86)\WINDOWS KITS\10\INCLUDE\10.0.10240.0\UCRT\CORECRT_MALLOC.H
C:\PROGRAM FILES (X86)\WINDOWS KITS\10\INCLUDE\10.0.10240.0\UCRT\CORECRT_SEARCH.H
C:\PROGRAM FILES (X86)\WINDOWS KITS\10\INCLUDE\10.0.10240.0\UCRT\STDDEF.H
C:\PROGRAM FILES (X86)\WINDOWS KITS\10\INCLUDE\10.0.10240.0\UCRT\CORECRT_WSTDLIB.H
C:\PROGRAM FILES (X86)\MICROSOFT VISUAL STUDIO 14.0\VC\INCLUDE\CSTDIO
C:\PROGRAM FILES (X86)\WINDOWS KITS\10\INCLUDE\10.0.10240.0\UCRT\STDIO.H
C:\PROGRAM FILES (X86)\WINDOWS KITS\10\INCLUDE\10.0.10240.0\UCRT\CORECRT_WSTDIO.H
C:\PROGRAM FILES (X86)\WINDOWS KITS\10\INCLUDE\10.0.10240.0\UCRT\CORECRT_STDIO_CONFIG.H
C:\PROGRAM FILES (X86)\MICROSOFT VISUAL STUDIO 14.0\VC\INCLUDE\STREAMBUF
C:\PROGRAM FILES (X86)\MICROSOFT VISUAL STUDIO 14.0\VC\INCLUDE\XIOSBASE
C:\PROGRAM FILES (X86)\MICROSOFT VISUAL STUDIO 14.0\VC\INCLUDE\XLOCALE
C:\PROGRAM FILES (X86)\MICROSOFT VISUAL STUDIO 14.0\VC\INCLUDE\CSTRING
C:\PROGRAM FILES (X86)\WINDOWS KITS\10\INCLUDE\10.0.10240.0\UCRT\STRING.H
C:\PROGRAM FILES (X86)\WINDOWS KITS\10\INCLUDE\10.0.10240.0\UCRT\CORECRT_MEMORY.H
C:\PROGRAM FILES (X86)\WINDOWS KITS\10\INCLUDE\10.0.10240.0\UCRT\CORECRT_MEMCPY_S.H
C:\PROGRAM FILES (X86)\WINDOWS KITS\10\INCLUDE\10.0.10240.0\UCRT\ERRNO.H
C:\PROGRAM FILES (X86)\MICROSOFT VISUAL STUDIO 14.0\VC\INCLUDE\VCRUNTIME_STRING.H
C:\PROGRAM FILES (X86)\WINDOWS KITS\10\INCLUDE\10.0.10240.0\UCRT\CORECRT_WSTRING.H
C:\PROGRAM FILES (X86)\MICROSOFT VISUAL STUDIO 14.0\VC\INCLUDE\STDEXCEPT
C:\PROGRAM FILES (X86)\MICROSOFT VISUAL STUDIO 14.0\VC\INCLUDE\EXCEPTION
C:\PROGRAM FILES (X86)\MICROSOFT VISUAL STUDIO 14.0\VC\INCLUDE\TYPE_TRAITS
C:\PROGRAM FILES (X86)\MICROSOFT VISUAL STUDIO 14.0\VC\INCLUDE\XSTDDEF
C:\PROGRAM FILES (X86)\MICROSOFT VISUAL STUDIO 14.0\VC\INCLUDE\CSTDDEF
C:\PROGRAM FILES (X86)\MICROSOFT VISUAL STUDIO 14.0\VC\INCLUDE\INITIALIZER_LIST
C:\PROGRAM FILES (X86)\WINDOWS KITS\10\INCLUDE\10.0.10240.0\UCRT\MALLOC.H
C:\PROGRAM FILES (X86)\MICROSOFT VISUAL STUDIO 14.0\VC\INCLUDE\VCRUNTIME_EXCEPTION.H
C:\PROGRAM FILES (X86)\MICROSOFT VISUAL STUDIO 14.0\VC\INCLUDE\EH.H
C:\PROGRAM FILES (X86)\WINDOWS KITS\10\INCLUDE\10.0.10240.0\UCRT\CORECRT_TERMINATE.H
C:\PROGRAM FILES (X86)\MICROSOFT VISUAL STUDIO 14.0\VC\INCLUDE\XSTRING
C:\PROGRAM FILES (X86)\MICROSOFT VISUAL STUDIO 14.0\VC\INCLUDE\XMEMORY0
C:\PROGRAM FILES (X86)\MICROSOFT VISUAL STUDIO 14.0\VC\INCLUDE\CSTDINT
C:\PROGRAM FILES (X86)\MICROSOFT VISUAL STUDIO 14.0\VC\INCLUDE\STDINT.H
C:\PROGRAM FILES (X86)\MICROSOFT VISUAL STUDIO 14.0\VC\INCLUDE\LIMITS
C:\PROGRAM FILES (X86)\MICROSOFT VISUAL STUDIO 14.0\VC\INCLUDE\YMATH.H
C:\PROGRAM FILES (X86)\MICROSOFT VISUAL STUDIO 14.0\VC\INCLUDE\CFLOAT
C:\PROGRAM FILES (X86)\WINDOWS KITS\10\INCLUDE\10.0.10240.0\UCRT\FLOAT.H
C:\PROGRAM FILES (X86)\MICROSOFT VISUAL STUDIO 14.0\VC\INCLUDE\CWCHAR
C:\PROGRAM FILES (X86)\WINDOWS KITS\10\INCLUDE\10.0.10240.0\UCRT\WCHAR.H
C:\PROGRAM FILES (X86)\WINDOWS KITS\10\INCLUDE\10.0.10240.0\UCRT\CORECRT_WCONIO.H
C:\PROGRAM FILES (X86)\WINDOWS KITS\10\INCLUDE\10.0.10240.0\UCRT\CORECRT_WCTYPE.H
C:\PROGRAM FILES (X86)\WINDOWS KITS\10\INCLUDE\10.0.10240.0\UCRT\CORECRT_WDIRECT.H
C:\PROGRAM FILES (X86)\WINDOWS KITS\10\INCLUDE\10.0.10240.0\UCRT\CORECRT_WIO.H
C:\PROGRAM FILES (X86)\WINDOWS KITS\10\INCLUDE\10.0.10240.0\UCRT\CORECRT_SHARE.H
C:\PROGRAM FILES (X86)\WINDOWS KITS\10\INCLUDE\10.0.10240.0\UCRT\CORECRT_WPROCESS.H
C:\PROGRAM FILES (X86)\WINDOWS KITS\10\INCLUDE\10.0.10240.0\UCRT\CORECRT_WTIME.H
C:\PROGRAM FILES (X86)\WINDOWS KITS\10\INCLUDE\10.0.10240.0\UCRT\SYS\STAT.H
C:\PROGRAM FILES (X86)\WINDOWS KITS\10\INCLUDE\10.0.10240.0\UCRT\SYS\TYPES.H
C:\PROGRAM FILES (X86)\MICROSOFT VISUAL STUDIO 14.0\VC\INCLUDE\NEW
C:\PROGRAM FILES (X86)\MICROSOFT VISUAL STUDIO 14.0\VC\INCLUDE\VCRUNTIME_NEW.H
C:\PROGRAM FILES (X86)\MICROSOFT VISUAL STUDIO 14.0\VC\INCLUDE\XUTILITY
C:\PROGRAM FILES (X86)\MICROSOFT VISUAL STUDIO 14.0\VC\INCLUDE\UTILITY
C:\PROGRAM FILES (X86)\MICROSOFT VISUAL STUDIO 14.0\VC\INCLUDE\IOSFWD
C:\PROGRAM FILES (X86)\WINDOWS KITS\10\INCLUDE\10.0.10240.0\UCRT\CRTDBG.H
C:\PROGRAM FILES (X86)\MICROSOFT VISUAL STUDIO 14.0\VC\INCLUDE\VCRUNTIME_NEW_DEBUG.H
C:\PROGRAM FILES (X86)\MICROSOFT VISUAL STUDIO 14.0\VC\INCLUDE\XATOMIC0.H
C:\PROGRAM FILES (X86)\MICROSOFT VISUAL STUDIO 14.0\VC\INCLUDE\INTRIN.H
C:\PROGRAM FILES (X86)\MICROSOFT VISUAL STUDIO 14.0\VC\INCLUDE\SETJMP.H
C:\PROGRAM FILES (X86)\MICROSOFT VISUAL STUDIO 14.0\VC\INCLUDE\IMMINTRIN.H
C:\PROGRAM FILES (X86)\MICROSOFT VISUAL STUDIO 14.0\VC\INCLUDE\WMMINTRIN.H
C:\PROGRAM FILES (X86)\MICROSOFT VISUAL STUDIO 14.0\VC\INCLUDE\NMMINTRIN.H
C:\PROGRAM FILES (X86)\MICROSOFT VISUAL STUDIO 14.0\VC\INCLUDE\SMMINTRIN.H
C:\PROGRAM FILES (X86)\MICROSOFT VISUAL STUDIO 14.0\VC\INCLUDE\TMMINTRIN.H
C:\PROGRAM FILES (X86)\MICROSOFT VISUAL STUDIO 14.0\VC\INCLUDE\PMMINTRIN.H
C:\PROGRAM FILES (X86)\MICROSOFT VISUAL STUDIO 14.0\VC\INCLUDE\EMMINTRIN.H
C:\PROGRAM FILES (X86)\MICROSOFT VISUAL STUDIO 14.0\VC\INCLUDE\XMMINTRIN.H
C:\PROGRAM FILES (X86)\MICROSOFT VISUAL STUDIO 14.0\VC\INCLUDE\MMINTRIN.H
C:\PROGRAM FILES (X86)\MICROSOFT VISUAL STUDIO 14.0\VC\INCLUDE\AMMINTRIN.H
C:\PROGRAM FILES (X86)\MICROSOFT VISUAL STUDIO 14.0\VC\INCLUDE\MM3DNOW.H
C:\PROGRAM FILES (X86)\MICROSOFT VISUAL STUDIO 14.0\VC\INCLUDE\TYPEINFO
C:\PROGRAM FILES (X86)\MICROSOFT VISUAL STUDIO 14.0\VC\INCLUDE\VCRUNTIME_TYPEINFO.H
C:\PROGRAM FILES (X86)\MICROSOFT VISUAL STUDIO 14.0\VC\INCLUDE\XLOCINFO
C:\PROGRAM FILES (X86)\MICROSOFT VISUAL STUDIO 14.0\VC\INCLUDE\XLOCINFO.H
C:\PROGRAM FILES (X86)\WINDOWS KITS\10\INCLUDE\10.0.10240.0\UCRT\CTYPE.H
C:\PROGRAM FILES (X86)\WINDOWS KITS\10\INCLUDE\10.0.10240.0\UCRT\LOCALE.H
C:\PROGRAM FILES (X86)\MICROSOFT VISUAL STUDIO 14.0\VC\INCLUDE\XFACET
C:\PROGRAM FILES (X86)\MICROSOFT VISUAL STUDIO 14.0\VC\INCLUDE\SYSTEM_ERROR
C:\PROGRAM FILES (X86)\MICROSOFT VISUAL STUDIO 14.0\VC\INCLUDE\CERRNO
C:\PROGRAM FILES (X86)\WINDOWS KITS\10\INCLUDE\10.0.10240.0\UCRT\SHARE.H
C:\USERS\STACKNIT\DROPBOX\EVENTGLYPH\PACKAGES\NUPENGL.CORE.0.1.0.1\BUILD\NATIVE\INCLUDE\GL\GLEW.H
C:\PROGRAM FILES (X86)\WINDOWS KITS\8.1\INCLUDE\UM\GL\GLU.H
C:\PROGRAM FILES (X86)\WINDOWS KITS\8.1\INCLUDE\SHARED\WINAPIFAMILY.H
C:\PROGRAM FILES (X86)\WINDOWS KITS\8.1\INCLUDE\UM\GL\GL.H
C:\PROGRAM FILES (X86)\MICROSOFT VISUAL STUDIO 14.0\VC\INCLUDE\IOSTREAM
C:\PROGRAM FILES (X86)\MICROSOFT VISUAL STUDIO 14.0\VC\INCLUDE\FSTREAM
C:\PROGRAM FILES (X86)\MICROSOFT VISUAL STUDIO 14.0\VC\INCLUDE\SSTREAM
